{
"IND":{"fillKey":"0~3 cases","number":"1"},
"VEN":{"fillKey":"0~3 cases","number":"1"},
"COL":{"fillKey":"0~3 cases","number":"1"},
"PER":{"fillKey":"0~3 cases","number":"2"},
"PHL":{"fillKey":"0~3 cases","number":"1"}
}