{
"CYP":{"fillKey":"0~3 cases","number":"1"},
"TUR":{"fillKey":"0~3 cases","number":"1"},
"CHL":{"fillKey":"0~3 cases","number":"2"},
"PER":{"fillKey":"0~3 cases","number":"1"},
"GRC":{"fillKey":"0~3 cases","number":"1"},
"IRN":{"fillKey":"0~3 cases","number":"1"},
"NZL":{"fillKey":"0~3 cases","number":"1"}
}