{
"EGY":{"fillKey":"0~3 cases","number":"1"},
"PHL":{"fillKey":"0~3 cases","number":"1"},
"JPN":{"fillKey":"0~3 cases","number":"1"},
"CHN":{"fillKey":"0~3 cases","number":"1"},
"IDN":{"fillKey":"0~3 cases","number":"1"},
"CAN":{"fillKey":"0~3 cases","number":"1"},
"THA":{"fillKey":"0~3 cases","number":"1"}
}