{
"DZA":{"fillKey":"0~3 cases","number":"1"},
"MAR":{"fillKey":"0~3 cases","number":"1"},
"USA":{"fillKey":"0~3 cases","number":"1"},
"JPN":{"fillKey":"0~3 cases","number":"1"},
"PHL":{"fillKey":"0~3 cases","number":"2"},
"CHL":{"fillKey":"0~3 cases","number":"2"},
"PER":{"fillKey":"0~3 cases","number":"1"},
"ITA":{"fillKey":"0~3 cases","number":"1"},
"IRN":{"fillKey":"0~3 cases","number":"1"},
"PNG":{"fillKey":"0~3 cases","number":"1"}
}