{
"PHL":{"fillKey":"0~3 cases","number":"1"},
"TUR":{"fillKey":"0~3 cases","number":"1"},
"ALB":{"fillKey":"0~3 cases","number":"1"},
"IDN":{"fillKey":"0~3 cases","number":"2"},
"VEN":{"fillKey":"0~3 cases","number":"1"},
"GRC":{"fillKey":"0~3 cases","number":"1"},
"COG":{"fillKey":"0~3 cases","number":"1"},
"IND":{"fillKey":"0~3 cases","number":"1"},
"COL":{"fillKey":"0~3 cases","number":"1"},
"BRA":{"fillKey":"0~3 cases","number":"1"},
"YUG":{"fillKey":"0~3 cases","number":"1"}
}