{
"USA":{"fillKey":"0~3 cases","number":"1"},
"SLB":{"fillKey":"0~3 cases","number":"1"},
"NIC":{"fillKey":"0~3 cases","number":"1"},
"TUR":{"fillKey":"0~3 cases","number":"2"},
"AFG":{"fillKey":"0~3 cases","number":"1"},
"CHL":{"fillKey":"0~3 cases","number":"1"},
"PER":{"fillKey":"0~3 cases","number":"1"},
"ITA":{"fillKey":"0~3 cases","number":"1"},
"ECU":{"fillKey":"0~3 cases","number":"1"},
"VCT":{"fillKey":"0~3 cases","number":"1"},
"CAN":{"fillKey":"0~3 cases","number":"1"},
"COL":{"fillKey":"0~3 cases","number":"1"},
"PNG":{"fillKey":"0~3 cases","number":"1"}
}