{
"BEL":{"fillKey":"0~3 cases","number":"1"},
"SUN":{"fillKey":"0~3 cases","number":"1"},
"PER":{"fillKey":"3~5 cases","number":"3"},
"IDN":{"fillKey":">5 cases","number":"5"},
"ISL":{"fillKey":"0~3 cases","number":"2"},
"PAK":{"fillKey":"3~5 cases","number":"3"},
"COL":{"fillKey":"0~3 cases","number":"2"},
"YUG":{"fillKey":"0~3 cases","number":"1"},
"CRI":{"fillKey":"0~3 cases","number":"2"},
"USA":{"fillKey":"3~5 cases","number":"3"},
"ECU":{"fillKey":"0~3 cases","number":"1"},
"LBN":{"fillKey":"0~3 cases","number":"1"},
"FRA":{"fillKey":"0~3 cases","number":"2"},
"AFG":{"fillKey":"0~3 cases","number":"1"},
"CHL":{"fillKey":"0~3 cases","number":"1"},
"GTM":{"fillKey":"0~3 cases","number":"1"},
"CHN":{"fillKey":"0~3 cases","number":"2"},
"GRC":{"fillKey":"0~3 cases","number":"1"},
"IRN":{"fillKey":"0~3 cases","number":"2"},
"GIN":{"fillKey":"0~3 cases","number":"1"},
"NPL":{"fillKey":"0~3 cases","number":"1"},
"JPN":{"fillKey":">5 cases","number":"5"},
"TUR":{"fillKey":"0~3 cases","number":"1"},
"PHL":{"fillKey":"0~3 cases","number":"1"},
"ITA":{"fillKey":"0~3 cases","number":"2"},
"PNG":{"fillKey":"0~3 cases","number":"2"},
"IND":{"fillKey":"0~3 cases","number":"1"},
"MEX":{"fillKey":"0~3 cases","number":"1"},
"BRA":{"fillKey":"0~3 cases","number":"1"}
}