{
"MSR":{"fillKey":"0~3 cases","number":"1"},
"PER":{"fillKey":"0~3 cases","number":"2"},
"IDN":{"fillKey":"3~5 cases","number":"3"},
"BOL":{"fillKey":"0~3 cases","number":"1"},
"ISL":{"fillKey":"0~3 cases","number":"1"},
"PAK":{"fillKey":"0~3 cases","number":"1"},
"COL":{"fillKey":"0~3 cases","number":"1"},
"KOR":{"fillKey":"0~3 cases","number":"1"},
"MYS":{"fillKey":"0~3 cases","number":"1"},
"ECU":{"fillKey":"0~3 cases","number":"1"},
"AFG":{"fillKey":"0~3 cases","number":"1"},
"ESP":{"fillKey":"0~3 cases","number":"1"},
"HRV":{"fillKey":"0~3 cases","number":"1"},
"GTM":{"fillKey":"0~3 cases","number":"1"},
"CHN":{"fillKey":">5 cases","number":"8"},
"AUS":{"fillKey":"0~3 cases","number":"1"},
"GRC":{"fillKey":"0~3 cases","number":"1"},
"PHL":{"fillKey":"0~3 cases","number":"2"},
"ZAF":{"fillKey":"0~3 cases","number":"1"},
"TUR":{"fillKey":"0~3 cases","number":"1"},
"JPN":{"fillKey":"0~3 cases","number":"1"},
"ITA":{"fillKey":"0~3 cases","number":"1"},
"BRA":{"fillKey":"3~5 cases","number":"3"},
"LCA":{"fillKey":"0~3 cases","number":"1"},
"IND":{"fillKey":"0~3 cases","number":"1"},
"RUS":{"fillKey":"0~3 cases","number":"1"},
"PNG":{"fillKey":"3~5 cases","number":"3"}
}