{
"DZA":{"fillKey":"0~3 cases","number":"1"},
"BGD":{"fillKey":"0~3 cases","number":"1"},
"USA":{"fillKey":"0~3 cases","number":"1"},
"TWN":{"fillKey":"0~3 cases","number":"1"},
"TUR":{"fillKey":"0~3 cases","number":"2"},
"PER":{"fillKey":"0~3 cases","number":"1"},
"IDN":{"fillKey":">5 cases","number":"5"},
"COD":{"fillKey":"0~3 cases","number":"1"},
"ISL":{"fillKey":"0~3 cases","number":"1"},
"PAK":{"fillKey":"0~3 cases","number":"2"},
"COL":{"fillKey":"0~3 cases","number":"2"},
"UGA":{"fillKey":"0~3 cases","number":"1"},
"ECU":{"fillKey":"0~3 cases","number":"1"},
"SRB":{"fillKey":"0~3 cases","number":"1"},
"RWA":{"fillKey":"0~3 cases","number":"2"},
"ZMB":{"fillKey":"0~3 cases","number":"1"},
"AFG":{"fillKey":"3~5 cases","number":"3"},
"CHL":{"fillKey":"0~3 cases","number":"1"},
"GTM":{"fillKey":"0~3 cases","number":"2"},
"CHN":{"fillKey":">5 cases","number":"13"},
"IRN":{"fillKey":">5 cases","number":"6"},
"SLE":{"fillKey":"0~3 cases","number":"1"},
"SLB":{"fillKey":"0~3 cases","number":"1"},
"NZL":{"fillKey":"0~3 cases","number":"1"},
"KEN":{"fillKey":"0~3 cases","number":"1"},
"PHL":{"fillKey":"0~3 cases","number":"2"},
"TJK":{"fillKey":"0~3 cases","number":"1"},
"KGZ":{"fillKey":"0~3 cases","number":"1"},
"HTI":{"fillKey":"0~3 cases","number":"1"},
"MMR":{"fillKey":"0~3 cases","number":"1"},
"IND":{"fillKey":"0~3 cases","number":"1"},
"MEX":{"fillKey":"3~5 cases","number":"3"}
}