{
"PAK":{"fillKey":"0~3 cases","number":"1"},
"JPN":{"fillKey":"0~3 cases","number":"1"},
"ZAF":{"fillKey":"0~3 cases","number":"1"},
"HTI":{"fillKey":"0~3 cases","number":"1"},
"MEX":{"fillKey":"0~3 cases","number":"1"},
"CHN":{"fillKey":"0~3 cases","number":"2"},
"IND":{"fillKey":"3~5 cases","number":"3"},
"KOR":{"fillKey":"0~3 cases","number":"1"},
"COL":{"fillKey":"0~3 cases","number":"1"},
"BRA":{"fillKey":"0~3 cases","number":"1"}
}