{
"PAK":{"fillKey":"0~3 cases","number":"1"},
"BGD":{"fillKey":"0~3 cases","number":"1"},
"HND":{"fillKey":"0~3 cases","number":"1"},
"USA":{"fillKey":"0~3 cases","number":"1"},
"JPN":{"fillKey":"0~3 cases","number":"1"},
"NIC":{"fillKey":"0~3 cases","number":"1"},
"AFG":{"fillKey":"0~3 cases","number":"1"},
"HKG":{"fillKey":"0~3 cases","number":"1"},
"IDN":{"fillKey":"0~3 cases","number":"1"},
"AUS":{"fillKey":"0~3 cases","number":"1"},
"PHL":{"fillKey":"0~3 cases","number":"2"},
"CAN":{"fillKey":"0~3 cases","number":"1"},
"ETH":{"fillKey":"0~3 cases","number":"1"},
"MMR":{"fillKey":"0~3 cases","number":"1"},
"COL":{"fillKey":"0~3 cases","number":"1"},
"NZL":{"fillKey":"0~3 cases","number":"1"}
}