[
{"year":"2007","country":"Albania","type":"Wildfire","sub_type":"Forest fire","death":"No Report","affected":"75","loss":"No Report"},
{"year":"1989","country":"Albania","type":"Drought","sub_type":"Drought","death":"No Report","affected":"3200000","loss":"No Report"}
]