[
{"year":"1983","country":"Djibouti","type":"Drought","sub_type":"Drought","death":"No Report","affected":"80000","loss":"No Report"},
{"year":"1980","country":"Djibouti","type":"Drought","sub_type":"Drought","death":"No Report","affected":"145000","loss":"No Report"},
{"year":"1996","country":"Djibouti","type":"Drought","sub_type":"Drought","death":"No Report","affected":"100000","loss":"No Report"},
{"year":"1988","country":"Djibouti","type":"Drought","sub_type":"Drought","death":"No Report","affected":"30000","loss":"No Report"},
{"year":"2001","country":"Djibouti","type":"Drought","sub_type":"Drought","death":"No Report","affected":"100000","loss":"No Report"},
{"year":"2007","country":"Djibouti","type":"Drought","sub_type":"Drought","death":"No Report","affected":"42750","loss":"No Report"},
{"year":"2005","country":"Djibouti","type":"Drought","sub_type":"Drought","death":"No Report","affected":"150000","loss":"No Report"},
{"year":"2008","country":"Djibouti","type":"Drought","sub_type":"Drought","death":"No Report","affected":"340000","loss":"No Report"},
{"year":"2010","country":"Djibouti","type":"Drought","sub_type":"Drought","death":"No Report","affected":"200258","loss":"No Report"}
]