[
{"year":"2003","country":"Croatia","type":"Wildfire","sub_type":"Forest fire","death":"No Report","affected":"No Report","loss":"20000"},
{"year":"2003","country":"Croatia","type":"Drought","sub_type":"Drought","death":"No Report","affected":"No Report","loss":"330000"},
{"year":"2000","country":"Croatia","type":"Wildfire","sub_type":"Forest fire","death":"1","affected":"No Report","loss":"17750"},
{"year":"2007","country":"Croatia","type":"Wildfire","sub_type":"Forest fire","death":"No Report","affected":"26","loss":"No Report"},
{"year":"2007","country":"Croatia","type":"Wildfire","sub_type":"Forest fire","death":"12","affected":"No Report","loss":"No Report"},
{"year":"1997","country":"Croatia","type":"Wildfire","sub_type":"Forest fire","death":"No Report","affected":"No Report","loss":"No Report"}
]