[
{"year":"1987","country":"India","type":"Drought","sub_type":"Drought","death":"300","affected":"300000000","loss":"No Report"},
{"year":"1984","country":"India","type":"Wildfire","sub_type":"Forest fire","death":"No Report","affected":"No Report","loss":"2000"},
{"year":"1982","country":"India","type":"Drought","sub_type":"Drought","death":"No Report","affected":"100000000","loss":"No Report"},
{"year":"1979","country":"India","type":"Drought","sub_type":"Drought","death":"No Report","affected":"10000000","loss":"200000"},
{"year":"1996","country":"India","type":"Drought","sub_type":"Drought","death":"No Report","affected":"No Report","loss":"542400"},
{"year":"1964","country":"India","type":"Drought","sub_type":"Drought","death":"No Report","affected":"500000","loss":"No Report"},
{"year":"1964","country":"India","type":"Drought","sub_type":"Drought","death":"No Report","affected":"166000","loss":"No Report"},
{"year":"1965","country":"India","type":"Drought","sub_type":"Drought","death":"1500000","affected":"100000000","loss":"100000"},
{"year":"1993","country":"India","type":"Drought","sub_type":"Drought","death":"No Report","affected":"1175000","loss":"No Report"},
{"year":"1972","country":"India","type":"Drought","sub_type":"Drought","death":"No Report","affected":"200000000","loss":"100000"},
{"year":"2002","country":"India","type":"Drought","sub_type":"Drought","death":"No Report","affected":"300000000","loss":"910722"},
{"year":"1999","country":"India","type":"Wildfire","sub_type":"Forest fire","death":"6","affected":"No Report","loss":"No Report"},
{"year":"2000","country":"India","type":"Drought","sub_type":"Drought","death":"20","affected":"50000000","loss":"588000"},
{"year":"2009","country":"India","type":"Drought","sub_type":"Drought","death":"No Report","affected":"No Report","loss":"No Report"}
]