[
{"year":"1977","country":"Japan","type":"Drought","sub_type":"Drought","death":"No Report","affected":"No Report","loss":"No Report"},
{"year":"2002","country":"Japan","type":"Wildfire","sub_type":"Forest fire","death":"No Report","affected":"222","loss":"No Report"}
]