[
{"year":"1992","country":"Lesotho","type":"Drought","sub_type":"Drought","death":"No Report","affected":"331500","loss":"No Report"},
{"year":"1968","country":"Lesotho","type":"Drought","sub_type":"Drought","death":"No Report","affected":"204000","loss":"1000"},
{"year":"1983","country":"Lesotho","type":"Drought","sub_type":"Drought","death":"No Report","affected":"500000","loss":"No Report"},
{"year":"2002","country":"Lesotho","type":"Drought","sub_type":"Drought","death":"No Report","affected":"500000","loss":"No Report"},
{"year":"2007","country":"Lesotho","type":"Drought","sub_type":"Drought","death":"No Report","affected":"475000","loss":"No Report"},
{"year":"2011","country":"Lesotho","type":"Drought","sub_type":"Drought","death":"No Report","affected":"725515","loss":"No Report"}
]