[
{"year":"1992","country":"Lithuania","type":"Drought","sub_type":"Drought","death":"No Report","affected":"No Report","loss":"52900"},
{"year":"2006","country":"Lithuania","type":"Drought","sub_type":"Drought","death":"No Report","affected":"No Report","loss":"225573"}
]