[
{"year":"1990","country":"Niger","type":"Drought","sub_type":"Drought","death":"No Report","affected":"1630000","loss":"No Report"},
{"year":"1980","country":"Niger","type":"Drought","sub_type":"Drought","death":"No Report","affected":"3500000","loss":"No Report"},
{"year":"1997","country":"Niger","type":"Drought","sub_type":"Drought","death":"No Report","affected":"8500","loss":"No Report"},
{"year":"1966","country":"Niger","type":"Drought","sub_type":"Drought","death":"No Report","affected":"No Report","loss":"No Report"},
{"year":"1988","country":"Niger","type":"Drought","sub_type":"Drought","death":"No Report","affected":"1000000","loss":"No Report"},
{"year":"2001","country":"Niger","type":"Drought","sub_type":"Drought","death":"No Report","affected":"3584558","loss":"No Report"},
{"year":"2005","country":"Niger","type":"Drought","sub_type":"Drought","death":"No Report","affected":"3000000","loss":"No Report"},
{"year":"2009","country":"Niger","type":"Drought","sub_type":"Drought","death":"No Report","affected":"7900000","loss":"No Report"},
{"year":"2011","country":"Niger","type":"Drought","sub_type":"Drought","death":"No Report","affected":"3000000","loss":"No Report"}
]