[
{"year":"1993","country":"Russia","type":"Drought","sub_type":"Drought","death":"No Report","affected":"No Report","loss":"No Report"},
{"year":"1992","country":"Russia","type":"Wildfire","sub_type":"Forest fire","death":"31","affected":"No Report","loss":"No Report"},
{"year":"1997","country":"Russia","type":"Wildfire","sub_type":"Forest fire","death":"No Report","affected":"No Report","loss":"No Report"},
{"year":"1997","country":"Russia","type":"Wildfire","sub_type":"Forest fire","death":"14","affected":"No Report","loss":"No Report"},
{"year":"1996","country":"Russia","type":"Wildfire","sub_type":"Forest fire","death":"19","affected":"600","loss":"No Report"},
{"year":"1999","country":"Russia","type":"Wildfire","sub_type":"Forest fire","death":"No Report","affected":"No Report","loss":"No Report"},
{"year":"1999","country":"Russia","type":"Wildfire","sub_type":"Forest fire","death":"No Report","affected":"No Report","loss":"113336"},
{"year":"1998","country":"Russia","type":"Wildfire","sub_type":"Forest fire","death":"3","affected":"100683","loss":"270000"},
{"year":"1998","country":"Russia","type":"Drought","sub_type":"Drought","death":"No Report","affected":"No Report","loss":"No Report"},
{"year":"2002","country":"Russia","type":"Wildfire","sub_type":"Forest fire","death":"No Report","affected":"120","loss":"No Report"},
{"year":"2002","country":"Russia","type":"Wildfire","sub_type":"Forest fire","death":"No Report","affected":"No Report","loss":"No Report"},
{"year":"2002","country":"Russia","type":"Wildfire","sub_type":"Forest fire","death":"No Report","affected":"No Report","loss":"No Report"},
{"year":"2003","country":"Russia","type":"Wildfire","sub_type":"Forest fire","death":"No Report","affected":"No Report","loss":"No Report"},
{"year":"2003","country":"Russia","type":"Drought","sub_type":"Drought","death":"No Report","affected":"1000000","loss":"No Report"},
{"year":"2000","country":"Russia","type":"Wildfire","sub_type":"Forest fire","death":"No Report","affected":"No Report","loss":"No Report"},
{"year":"2000","country":"Russia","type":"Wildfire","sub_type":"Forest fire","death":"No Report","affected":"No Report","loss":"No Report"},
{"year":"2000","country":"Russia","type":"Wildfire","sub_type":"Forest fire","death":"No Report","affected":"No Report","loss":"No Report"},
{"year":"2000","country":"Russia","type":"Wildfire","sub_type":"Forest fire","death":"No Report","affected":"No Report","loss":"No Report"},
{"year":"2000","country":"Russia","type":"Wildfire","sub_type":"Forest fire","death":"No Report","affected":"No Report","loss":"No Report"},
{"year":"2001","country":"Russia","type":"Wildfire","sub_type":"Forest fire","death":"No Report","affected":"No Report","loss":"No Report"},
{"year":"2001","country":"Russia","type":"Wildfire","sub_type":"Forest fire","death":"No Report","affected":"No Report","loss":"No Report"},
{"year":"2004","country":"Russia","type":"Wildfire","sub_type":"Forest fire","death":"9","affected":"1000","loss":"No Report"},
{"year":"2010","country":"Russia","type":"Wildfire","sub_type":"Land fire (Brush","death":"53","affected":"5996","loss":"1800000"},
{"year":"2010","country":"Russia","type":"Wildfire","sub_type":"Forest fire","death":"8","affected":"1200","loss":"No Report"},
{"year":"2010","country":"Russia","type":"Drought","sub_type":"Drought","death":"No Report","affected":"No Report","loss":"1400000"},
{"year":"2012","country":"Russia","type":"Wildfire","sub_type":"Land fire (Brush","death":"2","affected":"598","loss":"No Report"},
{"year":"2012","country":"Russia","type":"Drought","sub_type":"Drought","death":"No Report","affected":"No Report","loss":"1140000"}
]