[
{"year":"1990","country":"Swaziland","type":"Drought","sub_type":"Drought","death":"No Report","affected":"250000","loss":"1739"},
{"year":"1984","country":"Swaziland","type":"Drought","sub_type":"Drought","death":"No Report","affected":"No Report","loss":"No Report"},
{"year":"2001","country":"Swaziland","type":"Drought","sub_type":"Drought","death":"No Report","affected":"970000","loss":"No Report"},
{"year":"1983","country":"Swaziland","type":"Drought","sub_type":"Drought","death":"500","affected":"No Report","loss":"No Report"},
{"year":"2007","country":"Swaziland","type":"Wildfire","sub_type":"Forest fire","death":"2","affected":"1500","loss":"No Report"},
{"year":"2007","country":"Swaziland","type":"Drought","sub_type":"Drought","death":"No Report","affected":"410000","loss":"No Report"}
]