[
{"year":"2000","country":"Tajikistan","type":"Drought","sub_type":"Drought","death":"No Report","affected":"3000000","loss":"57000"},
{"year":"2008","country":"Tajikistan","type":"Drought","sub_type":"Drought","death":"No Report","affected":"800000","loss":"No Report"}
]