[
{"year":"1987","country":"Uganda","type":"Drought","sub_type":"Drought","death":"No Report","affected":"600000","loss":"No Report"},
{"year":"1979","country":"Uganda","type":"Drought","sub_type":"Drought","death":"No Report","affected":"500000","loss":"No Report"},
{"year":"1999","country":"Uganda","type":"Drought","sub_type":"Drought","death":"115","affected":"700000","loss":"No Report"},
{"year":"1998","country":"Uganda","type":"Drought","sub_type":"Drought","death":"No Report","affected":"126000","loss":"1600"},
{"year":"1967","country":"Uganda","type":"Drought","sub_type":"Drought","death":"No Report","affected":"25000","loss":"200"},
{"year":"2002","country":"Uganda","type":"Drought","sub_type":"Drought","death":"79","affected":"655000","loss":"No Report"},
{"year":"2005","country":"Uganda","type":"Drought","sub_type":"Drought","death":"No Report","affected":"600000","loss":"No Report"},
{"year":"2008","country":"Uganda","type":"Drought","sub_type":"Drought","death":"No Report","affected":"1100000","loss":"No Report"},
{"year":"2011","country":"Uganda","type":"Drought","sub_type":"Drought","death":"No Report","affected":"669000","loss":"No Report"}
]