[
{"year":"1988","country":"United States","type":"Drought","sub_type":"Drought","death":"No Report","affected":"No Report","loss":"No Report"},
{"year":"2014","country":"United States","type":"Wildfire","sub_type":"Forest fire","death":"2","affected":"429","loss":"100000"},
{"year":"2014","country":"United States","type":"Drought","sub_type":"Drought","death":"No Report","affected":"No Report","loss":"4000000"},
{"year":"2011","country":"United States","type":"Wildfire","sub_type":"Land fire (Brush","death":"2","affected":"1305","loss":"183000"},
{"year":"2011","country":"United States","type":"Wildfire","sub_type":"Forest fire","death":"4","affected":"4800","loss":"1000000"},
{"year":"2011","country":"United States","type":"Wildfire","sub_type":"Forest fire","death":"2","affected":"No Report","loss":"200000"},
{"year":"2011","country":"United States","type":"Drought","sub_type":"Drought","death":"No Report","affected":"No Report","loss":"8000000"},
{"year":"2013","country":"United States","type":"Wildfire","sub_type":"Forest fire","death":"No Report","affected":"110","loss":"21400"},
{"year":"2013","country":"United States","type":"Wildfire","sub_type":"Forest fire","death":"2","affected":"1617","loss":"500000"},
{"year":"2013","country":"United States","type":"Wildfire","sub_type":"Forest fire","death":"19","affected":"387","loss":"No Report"},
{"year":"2013","country":"United States","type":"Wildfire","sub_type":"--","death":"No Report","affected":"36","loss":"175000"},
{"year":"2013","country":"United States","type":"Wildfire","sub_type":"--","death":"1","affected":"225","loss":"10000"},
{"year":"2012","country":"United States","type":"Wildfire","sub_type":"--","death":"2","affected":"1038","loss":"600000"},
{"year":"2012","country":"United States","type":"Wildfire","sub_type":"--","death":"1","affected":"1809","loss":"200000"},
{"year":"2012","country":"United States","type":"Drought","sub_type":"Drought","death":"No Report","affected":"No Report","loss":"No Report"},
{"year":"2012","country":"United States","type":"Drought","sub_type":"Drought","death":"No Report","affected":"No Report","loss":"20000000"},
{"year":"1956","country":"United States","type":"Wildfire","sub_type":"Forest fire","death":"11","affected":"No Report","loss":"No Report"},
{"year":"1991","country":"United States","type":"Wildfire","sub_type":"Forest fire","death":"2","affected":"300","loss":"No Report"},
{"year":"1991","country":"United States","type":"Wildfire","sub_type":"Forest fire","death":"26","affected":"No Report","loss":"2500000"},
{"year":"1991","country":"United States","type":"Drought","sub_type":"Drought","death":"No Report","affected":"No Report","loss":"1000000"},
{"year":"1991","country":"United States","type":"Drought","sub_type":"Drought","death":"No Report","affected":"No Report","loss":"335000"},
{"year":"1993","country":"United States","type":"Wildfire","sub_type":"Forest fire","death":"3","affected":"130","loss":"1000000"},
{"year":"1992","country":"United States","type":"Wildfire","sub_type":"Forest fire","death":"No Report","affected":"990","loss":"85000"},
{"year":"1992","country":"United States","type":"Wildfire","sub_type":"Forest fire","death":"No Report","affected":"No Report","loss":"90000"},
{"year":"1994","country":"United States","type":"Wildfire","sub_type":"Forest fire","death":"No Report","affected":"232","loss":"2000"},
{"year":"1994","country":"United States","type":"Wildfire","sub_type":"Forest fire","death":"13","affected":"No Report","loss":"No Report"},
{"year":"1994","country":"United States","type":"Wildfire","sub_type":"Forest fire","death":"No Report","affected":"1200","loss":"No Report"},
{"year":"1997","country":"United States","type":"Wildfire","sub_type":"Forest fire","death":"No Report","affected":"700","loss":"2500"},
{"year":"1997","country":"United States","type":"Wildfire","sub_type":"Forest fire","death":"No Report","affected":"300","loss":"No Report"},
{"year":"1996","country":"United States","type":"Wildfire","sub_type":"Forest fire","death":"No Report","affected":"No Report","loss":"8500"},
{"year":"1996","country":"United States","type":"Wildfire","sub_type":"Land fire (Brush","death":"1","affected":"50","loss":"No Report"},
{"year":"1999","country":"United States","type":"Wildfire","sub_type":"Land fire (Brush","death":"1","affected":"300","loss":"No Report"},
{"year":"1999","country":"United States","type":"Wildfire","sub_type":"Forest fire","death":"No Report","affected":"629","loss":"No Report"},
{"year":"1999","country":"United States","type":"Wildfire","sub_type":"Forest fire","death":"No Report","affected":"90","loss":"92000"},
{"year":"1999","country":"United States","type":"Drought","sub_type":"Drought","death":"No Report","affected":"No Report","loss":"1100000"},
{"year":"1998","country":"United States","type":"Wildfire","sub_type":"Land fire (Brush","death":"1","affected":"40124","loss":"276000"},
{"year":"1998","country":"United States","type":"Wildfire","sub_type":"Land fire (Brush","death":"No Report","affected":"132","loss":"4500"},
{"year":"1998","country":"United States","type":"Wildfire","sub_type":"Land fire (Brush","death":"1","affected":"600","loss":"600"},
{"year":"1998","country":"United States","type":"Wildfire","sub_type":"Land fire (Brush","death":"No Report","affected":"365","loss":"No Report"},
{"year":"1970","country":"United States","type":"Wildfire","sub_type":"Land fire (Brush","death":"No Report","affected":"No Report","loss":"100000"},
{"year":"2002","country":"United States","type":"Wildfire","sub_type":"Forest fire","death":"No Report","affected":"134","loss":"6600"},
{"year":"2002","country":"United States","type":"Wildfire","sub_type":"Forest fire","death":"No Report","affected":"1300","loss":"5000"},
{"year":"2002","country":"United States","type":"Wildfire","sub_type":"Land fire (Brush","death":"No Report","affected":"No Report","loss":"No Report"},
{"year":"2002","country":"United States","type":"Wildfire","sub_type":"Forest fire","death":"No Report","affected":"No Report","loss":"No Report"},
{"year":"2002","country":"United States","type":"Wildfire","sub_type":"Forest fire","death":"No Report","affected":"1572","loss":"20000"},
{"year":"2002","country":"United States","type":"Wildfire","sub_type":"Forest fire","death":"No Report","affected":"1269","loss":"200500"},
{"year":"2002","country":"United States","type":"Wildfire","sub_type":"Forest fire","death":"No Report","affected":"2213","loss":"No Report"},
{"year":"2002","country":"United States","type":"Wildfire","sub_type":"Forest fire","death":"No Report","affected":"No Report","loss":"No Report"},
{"year":"2002","country":"United States","type":"Drought","sub_type":"Drought","death":"No Report","affected":"No Report","loss":"3300000"},
{"year":"2003","country":"United States","type":"Wildfire","sub_type":"Forest fire","death":"No Report","affected":"750","loss":"No Report"},
{"year":"2003","country":"United States","type":"Wildfire","sub_type":"Forest fire","death":"14","affected":"27104","loss":"No Report"},
{"year":"2003","country":"United States","type":"Wildfire","sub_type":"Forest fire","death":"4","affected":"40","loss":"3500000"},
{"year":"2000","country":"United States","type":"Wildfire","sub_type":"Forest fire","death":"No Report","affected":"600","loss":"No Report"},
{"year":"2000","country":"United States","type":"Wildfire","sub_type":"Forest fire","death":"No Report","affected":"25400","loss":"1500000"},
{"year":"2000","country":"United States","type":"Wildfire","sub_type":"Forest fire","death":"No Report","affected":"No Report","loss":"No Report"},
{"year":"2000","country":"United States","type":"Wildfire","sub_type":"Forest fire","death":"No Report","affected":"1010","loss":"No Report"},
{"year":"2000","country":"United States","type":"Wildfire","sub_type":"Forest fire","death":"No Report","affected":"8077","loss":"No Report"},
{"year":"2000","country":"United States","type":"Wildfire","sub_type":"Forest fire","death":"No Report","affected":"No Report","loss":"No Report"},
{"year":"2000","country":"United States","type":"Wildfire","sub_type":"Forest fire","death":"14","affected":"1000","loss":"1000000"},
{"year":"2000","country":"United States","type":"Drought","sub_type":"Drought","death":"No Report","affected":"No Report","loss":"1100000"},
{"year":"2000","country":"United States","type":"Drought","sub_type":"Drought","death":"No Report","affected":"No Report","loss":"No Report"},
{"year":"2001","country":"United States","type":"Wildfire","sub_type":"Forest fire","death":"1","affected":"139","loss":"No Report"},
{"year":"2001","country":"United States","type":"Wildfire","sub_type":"Forest fire","death":"No Report","affected":"No Report","loss":"No Report"},
{"year":"2001","country":"United States","type":"Wildfire","sub_type":"Forest fire","death":"1","affected":"No Report","loss":"No Report"},
{"year":"2006","country":"United States","type":"Wildfire","sub_type":"--","death":"1","affected":"167","loss":"16000"},
{"year":"2006","country":"United States","type":"Wildfire","sub_type":"Land fire (Brush","death":"4","affected":"103","loss":"25000"},
{"year":"2006","country":"United States","type":"Wildfire","sub_type":"Land fire (Brush","death":"No Report","affected":"15","loss":"25000"},
{"year":"2007","country":"United States","type":"Wildfire","sub_type":"Forest fire","death":"No Report","affected":"768","loss":"No Report"},
{"year":"2007","country":"United States","type":"Wildfire","sub_type":"Land fire (Brush","death":"8","affected":"640064","loss":"2500000"},
{"year":"2007","country":"United States","type":"Wildfire","sub_type":"Forest fire","death":"No Report","affected":"10159","loss":"315000"},
{"year":"2007","country":"United States","type":"Drought","sub_type":"Drought","death":"No Report","affected":"No Report","loss":"300000"},
{"year":"2004","country":"United States","type":"Wildfire","sub_type":"Forest fire","death":"No Report","affected":"15000","loss":"No Report"},
{"year":"2004","country":"United States","type":"Wildfire","sub_type":"Forest fire","death":"No Report","affected":"242","loss":"No Report"},
{"year":"2004","country":"United States","type":"Wildfire","sub_type":"Forest fire","death":"No Report","affected":"245","loss":"No Report"},
{"year":"2005","country":"United States","type":"Wildfire","sub_type":"Forest fire","death":"5","affected":"1410","loss":"100000"},
{"year":"2008","country":"United States","type":"Wildfire","sub_type":"Forest fire","death":"1","affected":"300","loss":"No Report"},
{"year":"2008","country":"United States","type":"Wildfire","sub_type":"--","death":"No Report","affected":"55020","loss":"2000000"},
{"year":"2009","country":"United States","type":"Wildfire","sub_type":"Land fire (Brush","death":"No Report","affected":"263","loss":"100000"},
{"year":"2009","country":"United States","type":"Wildfire","sub_type":"Land fire (Brush","death":"2","affected":"192","loss":"No Report"}
]