[
{"year":"1999","country":"Azerbaijan","type":"Earthquake","sub_type":"Ground movement","death":"1","affected":"9170","loss":"5000"},
{"year":"1998","country":"Azerbaijan","type":"Earthquake","sub_type":"Ground movement","death":"1","affected":"700010","loss":"No Report"},
{"year":"2000","country":"Azerbaijan","type":"Earthquake","sub_type":"Ground movement","death":"31","affected":"3294","loss":"10000"},
{"year":"2000","country":"Azerbaijan","type":"Landslide","sub_type":"Avalanche","death":"11","affected":"No Report","loss":"No Report"},
{"year":"2012","country":"Azerbaijan","type":"Earthquake","sub_type":"Ground movement","death":"No Report","affected":"15550","loss":"No Report"},
{"year":"2012","country":"Azerbaijan","type":"Earthquake","sub_type":"Ground movement","death":"No Report","affected":"6949","loss":"No Report"}
]