[
{"year":"1955","country":"Canada","type":"Mass movement (dry)","sub_type":"Landslide","death":"3","affected":"2006","loss":"No Report"},
{"year":"1965","country":"Canada","type":"Mass movement (dry)","sub_type":"Avalanche","death":"26","affected":"22","loss":"No Report"},
{"year":"1971","country":"Canada","type":"Mass movement (dry)","sub_type":"Landslide","death":"31","affected":"1500","loss":"No Report"}
]