[
{"year":"2014","country":"Cape Verde Is","type":"Volcanic activity","sub_type":"Lava flow","death":"No Report","affected":"980","loss":"No Report"},
{"year":"1995","country":"Cape Verde Is","type":"Volcanic activity","sub_type":"Ash fall","death":"No Report","affected":"6306","loss":"No Report"}
]