[
{"year":"2003","country":"Iran Islam Rep","type":"Earthquake","sub_type":"Ground movement","death":"No Report","affected":"10080","loss":"No Report"},
{"year":"2003","country":"Iran Islam Rep","type":"Earthquake","sub_type":"Ground movement","death":"No Report","affected":"1091","loss":"No Report"},
{"year":"2003","country":"Iran Islam Rep","type":"Earthquake","sub_type":"Ground movement","death":"1","affected":"17525","loss":"21666"},
{"year":"2003","country":"Iran Islam Rep","type":"Earthquake","sub_type":"Ground movement","death":"26796","affected":"267628","loss":"500000"},
{"year":"2003","country":"Iran Islam Rep","type":"Earthquake","sub_type":"Ground movement","death":"No Report","affected":"725","loss":"No Report"},
{"year":"2003","country":"Iran Islam Rep","type":"Landslide","sub_type":"Avalanche","death":"20","affected":"4","loss":"No Report"},
{"year":"1997","country":"Iran Islam Rep","type":"Earthquake","sub_type":"Ground movement","death":"100","affected":"84500","loss":"30000"},
{"year":"1997","country":"Iran Islam Rep","type":"Earthquake","sub_type":"Ground movement","death":"1100","affected":"38600","loss":"76000"},
{"year":"1997","country":"Iran Islam Rep","type":"Earthquake","sub_type":"Ground movement","death":"1568","affected":"74600","loss":"100000"},
{"year":"1997","country":"Iran Islam Rep","type":"Earthquake","sub_type":"Ground movement","death":"No Report","affected":"25500","loss":"No Report"},
{"year":"1988","country":"Iran Islam Rep","type":"Earthquake","sub_type":"Ground movement","death":"No Report","affected":"3524","loss":"No Report"},
{"year":"1988","country":"Iran Islam Rep","type":"Earthquake","sub_type":"Ground movement","death":"1","affected":"10000","loss":"No Report"},
{"year":"1988","country":"Iran Islam Rep","type":"Earthquake","sub_type":"Ground movement","death":"No Report","affected":"3030","loss":"No Report"},
{"year":"1986","country":"Iran Islam Rep","type":"Earthquake","sub_type":"Ground movement","death":"1","affected":"1504","loss":"No Report"},
{"year":"1986","country":"Iran Islam Rep","type":"Earthquake","sub_type":"Ground movement","death":"No Report","affected":"400","loss":"No Report"},
{"year":"1987","country":"Iran Islam Rep","type":"Earthquake","sub_type":"Ground movement","death":"No Report","affected":"1500","loss":"No Report"},
{"year":"1987","country":"Iran Islam Rep","type":"Earthquake","sub_type":"Ground movement","death":"2","affected":"50","loss":"No Report"},
{"year":"1987","country":"Iran Islam Rep","type":"Earthquake","sub_type":"Ground movement","death":"No Report","affected":"2425","loss":"No Report"},
{"year":"1985","country":"Iran Islam Rep","type":"Earthquake","sub_type":"Ground movement","death":"1","affected":"7080","loss":"No Report"},
{"year":"1968","country":"Iran Islam Rep","type":"Earthquake","sub_type":"Ground movement","death":"38","affected":"5100","loss":"1000"},
{"year":"1968","country":"Iran Islam Rep","type":"Earthquake","sub_type":"Ground movement","death":"10000","affected":"79050","loss":"35000"},
{"year":"1969","country":"Iran Islam Rep","type":"Earthquake","sub_type":"Ground movement","death":"50","affected":"48300","loss":"No Report"},
{"year":"1980","country":"Iran Islam Rep","type":"Earthquake","sub_type":"Ground movement","death":"20","affected":"No Report","loss":"No Report"},
{"year":"1980","country":"Iran Islam Rep","type":"Earthquake","sub_type":"Ground movement","death":"4","affected":"100","loss":"No Report"},
{"year":"1980","country":"Iran Islam Rep","type":"Earthquake","sub_type":"Ground movement","death":"26","affected":"No Report","loss":"No Report"},
{"year":"1981","country":"Iran Islam Rep","type":"Earthquake","sub_type":"Ground movement","death":"2000","affected":"3000","loss":"5000"},
{"year":"1981","country":"Iran Islam Rep","type":"Earthquake","sub_type":"Ground movement","death":"1200","affected":"31000","loss":"1000000"},
{"year":"1960","country":"Iran Islam Rep","type":"Earthquake","sub_type":"Ground movement","death":"480","affected":"No Report","loss":"No Report"},
{"year":"1961","country":"Iran Islam Rep","type":"Earthquake","sub_type":"Ground movement","death":"60","affected":"No Report","loss":"No Report"},
{"year":"1962","country":"Iran Islam Rep","type":"Earthquake","sub_type":"Ground movement","death":"12000","affected":"103000","loss":"30000"},
{"year":"1989","country":"Iran Islam Rep","type":"Earthquake","sub_type":"Ground movement","death":"100","affected":"217","loss":"No Report"},
{"year":"1989","country":"Iran Islam Rep","type":"Earthquake","sub_type":"Ground movement","death":"No Report","affected":"1500","loss":"No Report"},
{"year":"2014","country":"Iran Islam Rep","type":"Earthquake","sub_type":"Ground movement","death":"1","affected":"330","loss":"No Report"},
{"year":"2014","country":"Iran Islam Rep","type":"Earthquake","sub_type":"Ground movement","death":"No Report","affected":"85060","loss":"44000"},
{"year":"2010","country":"Iran Islam Rep","type":"Earthquake","sub_type":"Ground movement","death":"No Report","affected":"750","loss":"No Report"},
{"year":"2010","country":"Iran Islam Rep","type":"Earthquake","sub_type":"Ground movement","death":"No Report","affected":"274","loss":"No Report"},
{"year":"2010","country":"Iran Islam Rep","type":"Earthquake","sub_type":"Ground movement","death":"1","affected":"32","loss":"No Report"},
{"year":"2010","country":"Iran Islam Rep","type":"Earthquake","sub_type":"Ground movement","death":"No Report","affected":"104","loss":"No Report"},
{"year":"2010","country":"Iran Islam Rep","type":"Earthquake","sub_type":"Ground movement","death":"7","affected":"25","loss":"No Report"},
{"year":"2010","country":"Iran Islam Rep","type":"Earthquake","sub_type":"Ground movement","death":"3","affected":"3600","loss":"No Report"},
{"year":"2013","country":"Iran Islam Rep","type":"Earthquake","sub_type":"Ground movement","death":"37","affected":"4350","loss":"600000"},
{"year":"2013","country":"Iran Islam Rep","type":"Earthquake","sub_type":"Ground movement","death":"No Report","affected":"27","loss":"No Report"},
{"year":"2013","country":"Iran Islam Rep","type":"Earthquake","sub_type":"Ground movement","death":"8","affected":"1620","loss":"No Report"},
{"year":"2012","country":"Iran Islam Rep","type":"Earthquake","sub_type":"Ground movement","death":"306","affected":"61546","loss":"500000"},
{"year":"2012","country":"Iran Islam Rep","type":"Earthquake","sub_type":"Ground movement","death":"6","affected":"5523","loss":"No Report"},
{"year":"2012","country":"Iran Islam Rep","type":"Earthquake","sub_type":"Ground movement","death":"No Report","affected":"238","loss":"No Report"},
{"year":"2005","country":"Iran Islam Rep","type":"Earthquake","sub_type":"Ground movement","death":"No Report","affected":"110","loss":"No Report"},
{"year":"2005","country":"Iran Islam Rep","type":"Earthquake","sub_type":"Ground movement","death":"612","affected":"94766","loss":"80000"},
{"year":"2005","country":"Iran Islam Rep","type":"Earthquake","sub_type":"Ground movement","death":"13","affected":"100","loss":"No Report"},
{"year":"2005","country":"Iran Islam Rep","type":"Earthquake","sub_type":"Ground movement","death":"No Report","affected":"21912","loss":"No Report"},
{"year":"1957","country":"Iran Islam Rep","type":"Earthquake","sub_type":"Ground movement","death":"2500","affected":"10000","loss":"No Report"},
{"year":"1957","country":"Iran Islam Rep","type":"Earthquake","sub_type":"Ground movement","death":"3000","affected":"5000","loss":"No Report"},
{"year":"1957","country":"Iran Islam Rep","type":"Earthquake","sub_type":"Ground movement","death":"44","affected":"No Report","loss":"No Report"},
{"year":"1956","country":"Iran Islam Rep","type":"Earthquake","sub_type":"Ground movement","death":"350","affected":"No Report","loss":"No Report"},
{"year":"1953","country":"Iran Islam Rep","type":"Earthquake","sub_type":"Ground movement","death":"1000","affected":"No Report","loss":"No Report"},
{"year":"1958","country":"Iran Islam Rep","type":"Earthquake","sub_type":"Ground movement","death":"191","affected":"984","loss":"No Report"},
{"year":"1983","country":"Iran Islam Rep","type":"Earthquake","sub_type":"Ground movement","death":"30","affected":"7066","loss":"No Report"},
{"year":"1983","country":"Iran Islam Rep","type":"Earthquake","sub_type":"Ground movement","death":"3","affected":"416","loss":"5000"},
{"year":"1991","country":"Iran Islam Rep","type":"Earthquake","sub_type":"Ground movement","death":"No Report","affected":"1501","loss":"No Report"},
{"year":"1990","country":"Iran Islam Rep","type":"Earthquake","sub_type":"Ground movement","death":"40000","affected":"710000","loss":"8000000"},
{"year":"1990","country":"Iran Islam Rep","type":"Earthquake","sub_type":"Ground movement","death":"21","affected":"22400","loss":"232300"},
{"year":"1990","country":"Iran Islam Rep","type":"Landslide","sub_type":"Avalanche","death":"21","affected":"No Report","loss":"No Report"},
{"year":"1993","country":"Iran Islam Rep","type":"Earthquake","sub_type":"Ground movement","death":"24","affected":"4049","loss":"No Report"},
{"year":"1993","country":"Iran Islam Rep","type":"Earthquake","sub_type":"Ground movement","death":"No Report","affected":"1003","loss":"No Report"},
{"year":"1992","country":"Iran Islam Rep","type":"Earthquake","sub_type":"Ground movement","death":"5","affected":"4050","loss":"No Report"},
{"year":"1994","country":"Iran Islam Rep","type":"Earthquake","sub_type":"Ground movement","death":"9","affected":"1500","loss":"1400"},
{"year":"1994","country":"Iran Islam Rep","type":"Earthquake","sub_type":"Ground movement","death":"3","affected":"15041","loss":"No Report"},
{"year":"1994","country":"Iran Islam Rep","type":"Earthquake","sub_type":"Ground movement","death":"2","affected":"100","loss":"No Report"},
{"year":"1979","country":"Iran Islam Rep","type":"Earthquake","sub_type":"Ground movement","death":"199","affected":"5200","loss":"No Report"},
{"year":"1979","country":"Iran Islam Rep","type":"Earthquake","sub_type":"Ground movement","death":"350","affected":"15055","loss":"No Report"},
{"year":"1979","country":"Iran Islam Rep","type":"Earthquake","sub_type":"Ground movement","death":"16","affected":"23","loss":"No Report"},
{"year":"1978","country":"Iran Islam Rep","type":"Earthquake","sub_type":"Ground movement","death":"25000","affected":"40000","loss":"50000"},
{"year":"1978","country":"Iran Islam Rep","type":"Earthquake","sub_type":"Ground movement","death":"45","affected":"52","loss":"No Report"},
{"year":"1977","country":"Iran Islam Rep","type":"Earthquake","sub_type":"Ground movement","death":"167","affected":"20682","loss":"No Report"},
{"year":"1977","country":"Iran Islam Rep","type":"Earthquake","sub_type":"Ground movement","death":"352","affected":"400200","loss":"No Report"},
{"year":"1977","country":"Iran Islam Rep","type":"Earthquake","sub_type":"Ground movement","death":"3","affected":"9","loss":"No Report"},
{"year":"1977","country":"Iran Islam Rep","type":"Earthquake","sub_type":"Ground movement","death":"3","affected":"15","loss":"No Report"},
{"year":"1977","country":"Iran Islam Rep","type":"Earthquake","sub_type":"Ground movement","death":"589","affected":"500","loss":"No Report"},
{"year":"1976","country":"Iran Islam Rep","type":"Earthquake","sub_type":"Ground movement","death":"16","affected":"No Report","loss":"No Report"},
{"year":"1972","country":"Iran Islam Rep","type":"Earthquake","sub_type":"Ground movement","death":"5057","affected":"23458","loss":"1000"},
{"year":"1970","country":"Iran Islam Rep","type":"Landslide","sub_type":"Landslide","death":"43","affected":"100","loss":"No Report"},
{"year":"1970","country":"Iran Islam Rep","type":"Earthquake","sub_type":"Ground movement","death":"176","affected":"10000","loss":"8000"},
{"year":"2002","country":"Iran Islam Rep","type":"Earthquake","sub_type":"Ground movement","death":"1","affected":"780","loss":"No Report"},
{"year":"2002","country":"Iran Islam Rep","type":"Earthquake","sub_type":"Ground movement","death":"2","affected":"20056","loss":"No Report"},
{"year":"2002","country":"Iran Islam Rep","type":"Earthquake","sub_type":"Ground movement","death":"227","affected":"111300","loss":"300000"},
{"year":"2002","country":"Iran Islam Rep","type":"Earthquake","sub_type":"Ground movement","death":"No Report","affected":"15015","loss":"No Report"},
{"year":"2002","country":"Iran Islam Rep","type":"Earthquake","sub_type":"Ground movement","death":"No Report","affected":"5","loss":"No Report"},
{"year":"1999","country":"Iran Islam Rep","type":"Earthquake","sub_type":"Ground movement","death":"1","affected":"2690","loss":"No Report"},
{"year":"1999","country":"Iran Islam Rep","type":"Earthquake","sub_type":"Ground movement","death":"20","affected":"4100","loss":"No Report"},
{"year":"1999","country":"Iran Islam Rep","type":"Earthquake","sub_type":"Ground movement","death":"No Report","affected":"250","loss":"No Report"},
{"year":"2000","country":"Iran Islam Rep","type":"Earthquake","sub_type":"Ground movement","death":"1","affected":"2015","loss":"No Report"},
{"year":"2000","country":"Iran Islam Rep","type":"Earthquake","sub_type":"Ground movement","death":"No Report","affected":"1000","loss":"No Report"},
{"year":"2001","country":"Iran Islam Rep","type":"Earthquake","sub_type":"Ground movement","death":"No Report","affected":"1000","loss":"No Report"},
{"year":"2006","country":"Iran Islam Rep","type":"Earthquake","sub_type":"Ground movement","death":"No Report","affected":"7006","loss":"No Report"},
{"year":"2006","country":"Iran Islam Rep","type":"Earthquake","sub_type":"Ground movement","death":"63","affected":"161418","loss":"42262"},
{"year":"2006","country":"Iran Islam Rep","type":"Earthquake","sub_type":"Ground movement","death":"No Report","affected":"70","loss":"No Report"},
{"year":"2004","country":"Iran Islam Rep","type":"Earthquake","sub_type":"Ground movement","death":"35","affected":"498","loss":"165000"},
{"year":"1998","country":"Iran Islam Rep","type":"Landslide","sub_type":"Avalanche","death":"32","affected":"40","loss":"No Report"},
{"year":"1998","country":"Iran Islam Rep","type":"Earthquake","sub_type":"Ground movement","death":"5","affected":"1500","loss":"No Report"},
{"year":"1998","country":"Iran Islam Rep","type":"Earthquake","sub_type":"Ground movement","death":"12","affected":"2935","loss":"No Report"},
{"year":"1998","country":"Iran Islam Rep","type":"Earthquake","sub_type":"Ground movement","death":"5","affected":"4355","loss":"No Report"},
{"year":"1998","country":"Iran Islam Rep","type":"Earthquake","sub_type":"Ground movement","death":"No Report","affected":"500","loss":"No Report"},
{"year":"2008","country":"Iran Islam Rep","type":"Earthquake","sub_type":"Ground movement","death":"No Report","affected":"170","loss":"No Report"},
{"year":"2008","country":"Iran Islam Rep","type":"Earthquake","sub_type":"Ground movement","death":"6","affected":"20545","loss":"No Report"},
{"year":"2009","country":"Iran Islam Rep","type":"Earthquake","sub_type":"Ground movement","death":"No Report","affected":"269","loss":"No Report"}
]