[
{"year":"1997","country":"Japan","type":"Landslide","sub_type":"Landslide","death":"21","affected":"15","loss":"No Report"},
{"year":"1986","country":"Japan","type":"Volcanic activity","sub_type":"Ash fall","death":"No Report","affected":"13000","loss":"No Report"},
{"year":"1986","country":"Japan","type":"Landslide","sub_type":"Landslide","death":"20","affected":"No Report","loss":"No Report"},
{"year":"1986","country":"Japan","type":"Landslide","sub_type":"Avalanche","death":"13","affected":"No Report","loss":"No Report"},
{"year":"1987","country":"Japan","type":"Earthquake","sub_type":"Ground movement","death":"2","affected":"22652","loss":"No Report"},
{"year":"1984","country":"Japan","type":"Earthquake","sub_type":"Ground movement","death":"20","affected":"No Report","loss":"43000"},
{"year":"1984","country":"Japan","type":"Earthquake","sub_type":"Ground movement","death":"No Report","affected":"9","loss":"No Report"},
{"year":"1984","country":"Japan","type":"Landslide","sub_type":"Landslide","death":"14","affected":"No Report","loss":"No Report"},
{"year":"1985","country":"Japan","type":"Earthquake","sub_type":"Ground movement","death":"No Report","affected":"20","loss":"No Report"},
{"year":"1968","country":"Japan","type":"Earthquake","sub_type":"Ground movement","death":"47","affected":"2781","loss":"131000"},
{"year":"1983","country":"Japan","type":"Earthquake","sub_type":"Tsunami","death":"102","affected":"77","loss":"416000"},
{"year":"1983","country":"Japan","type":"Landslide","sub_type":"Landslide","death":"117","affected":"25088","loss":"No Report"},
{"year":"1983","country":"Japan","type":"Volcanic activity","sub_type":"Ash fall","death":"No Report","affected":"5600","loss":"No Report"},
{"year":"1983","country":"Japan","type":"Earthquake","sub_type":"Ground movement","death":"1","affected":"28","loss":"No Report"},
{"year":"1983","country":"Japan","type":"Landslide","sub_type":"Landslide","death":"70","affected":"No Report","loss":"No Report"},
{"year":"1980","country":"Japan","type":"Earthquake","sub_type":"Ground movement","death":"2","affected":"73","loss":"No Report"},
{"year":"1980","country":"Japan","type":"Earthquake","sub_type":"Ground movement","death":"No Report","affected":"7","loss":"No Report"},
{"year":"1981","country":"Japan","type":"Landslide","sub_type":"Landslide","death":"40","affected":"No Report","loss":"No Report"},
{"year":"1964","country":"Japan","type":"Earthquake","sub_type":"Tsunami","death":"25","affected":"35376","loss":"800000"},
{"year":"1964","country":"Japan","type":"Landslide","sub_type":"Landslide","death":"108","affected":"No Report","loss":"No Report"},
{"year":"1960","country":"Japan","type":"Earthquake","sub_type":"Tsunami","death":"138","affected":"No Report","loss":"140000"},
{"year":"1988","country":"Japan","type":"Volcanic activity","sub_type":"Ash fall","death":"No Report","affected":"No Report","loss":"No Report"},
{"year":"1989","country":"Japan","type":"Landslide","sub_type":"Landslide","death":"18","affected":"No Report","loss":"No Report"},
{"year":"1996","country":"Japan","type":"Landslide","sub_type":"Landslide","death":"14","affected":"3","loss":"No Report"},
{"year":"2014","country":"Japan","type":"Landslide","sub_type":"Landslide","death":"82","affected":"67","loss":"No Report"},
{"year":"2014","country":"Japan","type":"Volcanic activity","sub_type":"--","death":"62","affected":"69","loss":"No Report"},
{"year":"2014","country":"Japan","type":"Earthquake","sub_type":"Ground movement","death":"No Report","affected":"2611","loss":"No Report"},
{"year":"2011","country":"Japan","type":"Earthquake","sub_type":"Tsunami","death":"19846","affected":"368820","loss":"210000000"},
{"year":"2011","country":"Japan","type":"Earthquake","sub_type":"Ground movement","death":"2","affected":"132","loss":"No Report"},
{"year":"2011","country":"Japan","type":"Landslide","sub_type":"Landslide","death":"5","affected":"No Report","loss":"No Report"},
{"year":"2013","country":"Japan","type":"Earthquake","sub_type":"Ground movement","death":"No Report","affected":"8438","loss":"No Report"},
{"year":"1955","country":"Japan","type":"Landslide","sub_type":"Landslide","death":"73","affected":"No Report","loss":"No Report"},
{"year":"1956","country":"Japan","type":"Landslide","sub_type":"Landslide","death":"40","affected":"No Report","loss":"No Report"},
{"year":"1952","country":"Japan","type":"Volcanic activity","sub_type":"Ash fall","death":"29","affected":"29","loss":"No Report"},
{"year":"1952","country":"Japan","type":"Earthquake","sub_type":"Ground movement","death":"30","affected":"200","loss":"No Report"},
{"year":"1982","country":"Japan","type":"Earthquake","sub_type":"Ground movement","death":"No Report","affected":"1100","loss":"No Report"},
{"year":"1991","country":"Japan","type":"Volcanic activity","sub_type":"Ash fall","death":"43","affected":"10020","loss":"10000"},
{"year":"1993","country":"Japan","type":"Earthquake","sub_type":"Tsunami","death":"239","affected":"7355","loss":"1000000"},
{"year":"1993","country":"Japan","type":"Earthquake","sub_type":"Ground movement","death":"2","affected":"10522","loss":"358000"},
{"year":"1993","country":"Japan","type":"Volcanic activity","sub_type":"Ash fall","death":"1","affected":"4930","loss":"No Report"},
{"year":"1993","country":"Japan","type":"Landslide","sub_type":"Landslide","death":"27","affected":"35","loss":"No Report"},
{"year":"1993","country":"Japan","type":"Landslide","sub_type":"Landslide","death":"56","affected":"35","loss":"210000"},
{"year":"1992","country":"Japan","type":"Volcanic activity","sub_type":"Ash fall","death":"No Report","affected":"40000","loss":"No Report"},
{"year":"1992","country":"Japan","type":"Earthquake","sub_type":"Ground movement","death":"No Report","affected":"32","loss":"No Report"},
{"year":"1995","country":"Japan","type":"Earthquake","sub_type":"Ground movement","death":"5297","affected":"541636","loss":"100000000"},
{"year":"1995","country":"Japan","type":"Earthquake","sub_type":"Ground movement","death":"No Report","affected":"1551","loss":"No Report"},
{"year":"1994","country":"Japan","type":"Earthquake","sub_type":"Ground movement","death":"2","affected":"285","loss":"170400"},
{"year":"1994","country":"Japan","type":"Earthquake","sub_type":"Ground movement","death":"5","affected":"1500","loss":"No Report"},
{"year":"1979","country":"Japan","type":"Earthquake","sub_type":"Ground movement","death":"27","affected":"No Report","loss":"No Report"},
{"year":"1978","country":"Japan","type":"Earthquake","sub_type":"Ground movement","death":"25","affected":"217","loss":"No Report"},
{"year":"1978","country":"Japan","type":"Earthquake","sub_type":"Ground movement","death":"28","affected":"2500","loss":"865000"},
{"year":"1977","country":"Japan","type":"Volcanic activity","sub_type":"Ash fall","death":"3","affected":"10000","loss":"22000"},
{"year":"1998","country":"Japan","type":"Landslide","sub_type":"Landslide","death":"No Report","affected":"130","loss":"No Report"},
{"year":"1975","country":"Japan","type":"Landslide","sub_type":"Landslide","death":"30","affected":"No Report","loss":"No Report"},
{"year":"1974","country":"Japan","type":"Landslide","sub_type":"Landslide","death":"17","affected":"No Report","loss":"No Report"},
{"year":"1974","country":"Japan","type":"Earthquake","sub_type":"Ground movement","death":"30","affected":"73","loss":"No Report"},
{"year":"1972","country":"Japan","type":"Landslide","sub_type":"Landslide","death":"80","affected":"No Report","loss":"No Report"},
{"year":"2003","country":"Japan","type":"Earthquake","sub_type":"Ground movement","death":"No Report","affected":"2303","loss":"233000"},
{"year":"2003","country":"Japan","type":"Earthquake","sub_type":"Ground movement","death":"No Report","affected":"18191","loss":"411000"},
{"year":"2003","country":"Japan","type":"Earthquake","sub_type":"Ground movement","death":"2","affected":"773","loss":"563000"},
{"year":"2000","country":"Japan","type":"Volcanic activity","sub_type":"Ash fall","death":"No Report","affected":"12400","loss":"No Report"},
{"year":"2000","country":"Japan","type":"Earthquake","sub_type":"Ground movement","death":"1","affected":"100","loss":"No Report"},
{"year":"2000","country":"Japan","type":"Volcanic activity","sub_type":"Ash fall","death":"No Report","affected":"4000","loss":"No Report"},
{"year":"2000","country":"Japan","type":"Earthquake","sub_type":"Ground movement","death":"No Report","affected":"7132","loss":"500000"},
{"year":"2001","country":"Japan","type":"Earthquake","sub_type":"Ground movement","death":"2","affected":"11261","loss":"500000"},
{"year":"2007","country":"Japan","type":"Earthquake","sub_type":"Ground movement","death":"1","affected":"41027","loss":"250000"},
{"year":"2007","country":"Japan","type":"Earthquake","sub_type":"Ground movement","death":"9","affected":"14000","loss":"12500000"},
{"year":"2007","country":"Japan","type":"Earthquake","sub_type":"Ground movement","death":"No Report","affected":"201","loss":"No Report"},
{"year":"2004","country":"Japan","type":"Earthquake","sub_type":"Ground movement","death":"40","affected":"62183","loss":"28000000"},
{"year":"2005","country":"Japan","type":"Earthquake","sub_type":"Ground movement","death":"1","affected":"3535","loss":"400000"},
{"year":"2005","country":"Japan","type":"Earthquake","sub_type":"Ground movement","death":"No Report","affected":"895","loss":"No Report"},
{"year":"2008","country":"Japan","type":"Earthquake","sub_type":"Ground movement","death":"23","affected":"448","loss":"167000"},
{"year":"2008","country":"Japan","type":"Earthquake","sub_type":"Ground movement","death":"1","affected":"470","loss":"110000"},
{"year":"2009","country":"Japan","type":"Landslide","sub_type":"Landslide","death":"16","affected":"400","loss":"No Report"},
{"year":"2009","country":"Japan","type":"Landslide","sub_type":"Landslide","death":"28","affected":"No Report","loss":"No Report"},
{"year":"2009","country":"Japan","type":"Earthquake","sub_type":"Tsunami","death":"1","affected":"25319","loss":"400000"}
]