[
{"year":"1987","country":"New Zealand","type":"Earthquake","sub_type":"Ground movement","death":"1","affected":"7025","loss":"210000"},
{"year":"1995","country":"New Zealand","type":"Volcanic activity","sub_type":"Ash fall","death":"No Report","affected":"70","loss":"No Report"},
{"year":"1979","country":"New Zealand","type":"Landslide","sub_type":"Landslide","death":"No Report","affected":"600","loss":"2466"},
{"year":"1976","country":"New Zealand","type":"Earthquake","sub_type":"Ground movement","death":"No Report","affected":"No Report","loss":"No Report"},
{"year":"1953","country":"New Zealand","type":"Volcanic activity","sub_type":"Ash fall","death":"150","affected":"No Report","loss":"No Report"},
{"year":"1968","country":"New Zealand","type":"Earthquake","sub_type":"Ground movement","death":"3","affected":"314","loss":"2669"},
{"year":"2011","country":"New Zealand","type":"Earthquake","sub_type":"Ground movement","death":"181","affected":"301500","loss":"15000000"},
{"year":"2011","country":"New Zealand","type":"Earthquake","sub_type":"Ground movement","death":"1","affected":"345","loss":"3000000"},
{"year":"2010","country":"New Zealand","type":"Earthquake","sub_type":"Ground movement","death":"No Report","affected":"300002","loss":"6500000"},
{"year":"2013","country":"New Zealand","type":"Earthquake","sub_type":"Ground movement","death":"No Report","affected":"13840","loss":"50000"}
]