[
{"year":"1977","country":"Tonga","type":"Earthquake","sub_type":"Ground movement","death":"1","affected":"5505","loss":"1200"},
{"year":"2009","country":"Tonga","type":"Earthquake","sub_type":"Tsunami","death":"9","affected":"507","loss":"9500"}
]