[
{"year":"1986","country":"Bolivia","type":"Flood","sub_type":"Riverine flood","death":"29","affected":"310000","loss":"50000"},
{"year":"1987","country":"Bolivia","type":"Flood","sub_type":"Riverine flood","death":"25","affected":"20000","loss":"No Report"},
{"year":"1984","country":"Bolivia","type":"Flood","sub_type":"--","death":"No Report","affected":"3000","loss":"No Report"},
{"year":"1985","country":"Bolivia","type":"Flood","sub_type":"Riverine flood","death":"No Report","affected":"475","loss":"No Report"},
{"year":"1968","country":"Bolivia","type":"Flood","sub_type":"--","death":"24","affected":"26200","loss":"3000"},
{"year":"1983","country":"Bolivia","type":"Flood","sub_type":"Flash flood","death":"250","affected":"50000","loss":"48400"},
{"year":"1980","country":"Bolivia","type":"Flood","sub_type":"--","death":"No Report","affected":"15000","loss":"No Report"},
{"year":"2003","country":"Bolivia","type":"Flood","sub_type":"Riverine flood","death":"1","affected":"6500","loss":"No Report"},
{"year":"2003","country":"Bolivia","type":"Flood","sub_type":"Flash flood","death":"4","affected":"6025","loss":"No Report"},
{"year":"2003","country":"Bolivia","type":"Flood","sub_type":"Riverine flood","death":"69","affected":"45004","loss":"1000"},
{"year":"1965","country":"Bolivia","type":"Flood","sub_type":"Flash flood","death":"40","affected":"500","loss":"100"},
{"year":"1966","country":"Bolivia","type":"Flood","sub_type":"Riverine flood","death":"No Report","affected":"5500","loss":"500"},
{"year":"1966","country":"Bolivia","type":"Flood","sub_type":"--","death":"14","affected":"600","loss":"118"},
{"year":"2011","country":"Bolivia","type":"Flood","sub_type":"Riverine flood","death":"52","affected":"88825","loss":"20000"},
{"year":"2010","country":"Bolivia","type":"Flood","sub_type":"Riverine flood","death":"26","affected":"227860","loss":"No Report"},
{"year":"2013","country":"Bolivia","type":"Flood","sub_type":"Riverine flood","death":"25","affected":"145000","loss":"2500"},
{"year":"2013","country":"Bolivia","type":"Flood","sub_type":"Riverine flood","death":"74","affected":"338995","loss":"No Report"},
{"year":"2012","country":"Bolivia","type":"Flood","sub_type":"Riverine flood","death":"13","affected":"69085","loss":"No Report"},
{"year":"1982","country":"Bolivia","type":"Flood","sub_type":"--","death":"No Report","affected":"30000","loss":"400000"},
{"year":"1992","country":"Bolivia","type":"Flood","sub_type":"Riverine flood","death":"4","affected":"40050","loss":"100000"},
{"year":"1992","country":"Bolivia","type":"Flood","sub_type":"Riverine flood","death":"No Report","affected":"No Report","loss":"100000"},
{"year":"1997","country":"Bolivia","type":"Flood","sub_type":"Riverine flood","death":"40","affected":"190000","loss":"35000"},
{"year":"1997","country":"Bolivia","type":"Flood","sub_type":"Riverine flood","death":"16","affected":"No Report","loss":"35000"},
{"year":"1978","country":"Bolivia","type":"Flood","sub_type":"--","death":"No Report","affected":"63000","loss":"No Report"},
{"year":"1978","country":"Bolivia","type":"Flood","sub_type":"--","death":"40","affected":"115000","loss":"No Report"},
{"year":"1977","country":"Bolivia","type":"Flood","sub_type":"--","death":"10","affected":"90000","loss":"10000"},
{"year":"1974","country":"Bolivia","type":"Flood","sub_type":"--","death":"31","affected":"18000","loss":"10500"},
{"year":"2002","country":"Bolivia","type":"Flood","sub_type":"Riverine flood","death":"76","affected":"5146","loss":"100000"},
{"year":"1999","country":"Bolivia","type":"Flood","sub_type":"Riverine flood","death":"No Report","affected":"1600","loss":"No Report"},
{"year":"2000","country":"Bolivia","type":"Flood","sub_type":"Riverine flood","death":"No Report","affected":"7000","loss":"No Report"},
{"year":"2000","country":"Bolivia","type":"Flood","sub_type":"--","death":"30","affected":"10","loss":"No Report"},
{"year":"2001","country":"Bolivia","type":"Flood","sub_type":"Riverine flood","death":"41","affected":"357250","loss":"121000"},
{"year":"2006","country":"Bolivia","type":"Flood","sub_type":"Riverine flood","death":"No Report","affected":"504","loss":"No Report"},
{"year":"2006","country":"Bolivia","type":"Flood","sub_type":"Riverine flood","death":"25","affected":"126096","loss":"35000"},
{"year":"2007","country":"Bolivia","type":"Flood","sub_type":"Riverine flood","death":"40","affected":"339495","loss":"90000"},
{"year":"2007","country":"Bolivia","type":"Flood","sub_type":"Riverine flood","death":"75","affected":"485000","loss":"500000"},
{"year":"2009","country":"Bolivia","type":"Flood","sub_type":"Riverine flood","death":"No Report","affected":"63000","loss":"No Report"}
]