[
{"year":"1986","country":"Chile","type":"Flood","sub_type":"Riverine flood","death":"23","affected":"54118","loss":"17200"},
{"year":"1987","country":"Chile","type":"Flood","sub_type":"Riverine flood","death":"73","affected":"116364","loss":"177000"},
{"year":"1987","country":"Chile","type":"Flood","sub_type":"Riverine flood","death":"54","affected":"81000","loss":"No Report"},
{"year":"1993","country":"Chile","type":"Flood","sub_type":"Riverine flood","death":"109","affected":"3276","loss":"34000"},
{"year":"1982","country":"Chile","type":"Flood","sub_type":"--","death":"No Report","affected":"8000","loss":"No Report"},
{"year":"1997","country":"Chile","type":"Flood","sub_type":"Riverine flood","death":"22","affected":"76800","loss":"182400"},
{"year":"1978","country":"Chile","type":"Flood","sub_type":"--","death":"4","affected":"6000","loss":"No Report"},
{"year":"1965","country":"Chile","type":"Flood","sub_type":"--","death":"600","affected":"375000","loss":"10000"},
{"year":"1974","country":"Chile","type":"Flood","sub_type":"--","death":"32","affected":"40000","loss":"10000"},
{"year":"1989","country":"Chile","type":"Flood","sub_type":"--","death":"21","affected":"No Report","loss":"No Report"},
{"year":"2002","country":"Chile","type":"Flood","sub_type":"Riverine flood","death":"14","affected":"221842","loss":"200000"},
{"year":"2002","country":"Chile","type":"Flood","sub_type":"Riverine flood","death":"2","affected":"8000","loss":"No Report"},
{"year":"2002","country":"Chile","type":"Flood","sub_type":"Riverine flood","death":"3","affected":"800","loss":"No Report"},
{"year":"2000","country":"Chile","type":"Flood","sub_type":"Riverine flood","death":"1","affected":"42000","loss":"No Report"},
{"year":"2000","country":"Chile","type":"Flood","sub_type":"Flash flood","death":"15","affected":"139667","loss":"30000"},
{"year":"2001","country":"Chile","type":"Flood","sub_type":"--","death":"No Report","affected":"2559","loss":"8900"},
{"year":"2001","country":"Chile","type":"Flood","sub_type":"--","death":"No Report","affected":"10000","loss":"No Report"},
{"year":"2001","country":"Chile","type":"Flood","sub_type":"--","death":"4","affected":"No Report","loss":"No Report"},
{"year":"1990","country":"Chile","type":"Flood","sub_type":"--","death":"No Report","affected":"2500","loss":"No Report"},
{"year":"2004","country":"Chile","type":"Flood","sub_type":"Riverine flood","death":"3","affected":"9000","loss":"No Report"},
{"year":"2005","country":"Chile","type":"Flood","sub_type":"Riverine flood","death":"5","affected":"800","loss":"No Report"},
{"year":"2005","country":"Chile","type":"Flood","sub_type":"Riverine flood","death":"No Report","affected":"548","loss":"No Report"},
{"year":"1995","country":"Chile","type":"Flood","sub_type":"--","death":"28","affected":"No Report","loss":"No Report"},
{"year":"2008","country":"Chile","type":"Flood","sub_type":"Riverine flood","death":"5","affected":"40000","loss":"No Report"},
{"year":"2008","country":"Chile","type":"Flood","sub_type":"Riverine flood","death":"4","affected":"104755","loss":"23000"},
{"year":"2006","country":"Chile","type":"Flood","sub_type":"Riverine flood","death":"18","affected":"95862","loss":"No Report"},
{"year":"2012","country":"Chile","type":"Flood","sub_type":"Riverine flood","death":"No Report","affected":"4300","loss":"3100"}
]