[
{"year":"1962","country":"Colombia","type":"Flood","sub_type":"--","death":"135","affected":"No Report","loss":"No Report"},
{"year":"1986","country":"Colombia","type":"Flood","sub_type":"--","death":"13","affected":"250000","loss":"No Report"},
{"year":"1987","country":"Colombia","type":"Flood","sub_type":"Riverine flood","death":"21","affected":"850","loss":"No Report"},
{"year":"1984","country":"Colombia","type":"Flood","sub_type":"--","death":"No Report","affected":"No Report","loss":"No Report"},
{"year":"1982","country":"Colombia","type":"Flood","sub_type":"--","death":"90","affected":"No Report","loss":"No Report"},
{"year":"1969","country":"Colombia","type":"Flood","sub_type":"Riverine flood","death":"No Report","affected":"70000","loss":"500"},
{"year":"1980","country":"Colombia","type":"Flood","sub_type":"--","death":"40","affected":"50","loss":"No Report"},
{"year":"1981","country":"Colombia","type":"Flood","sub_type":"Riverine flood","death":"150","affected":"No Report","loss":"5000"},
{"year":"1988","country":"Colombia","type":"Flood","sub_type":"Riverine flood","death":"120","affected":"130800","loss":"No Report"},
{"year":"1989","country":"Colombia","type":"Flood","sub_type":"--","death":"16","affected":"No Report","loss":"No Report"},
{"year":"2014","country":"Colombia","type":"Flood","sub_type":"Riverine flood","death":"No Report","affected":"8978","loss":"No Report"},
{"year":"2014","country":"Colombia","type":"Flood","sub_type":"Riverine flood","death":"33","affected":"41151","loss":"No Report"},
{"year":"2014","country":"Colombia","type":"Flood","sub_type":"Riverine flood","death":"No Report","affected":"4085","loss":"No Report"},
{"year":"2014","country":"Colombia","type":"Flood","sub_type":"Riverine flood","death":"44","affected":"No Report","loss":"No Report"},
{"year":"2011","country":"Colombia","type":"Flood","sub_type":"Riverine flood","death":"138","affected":"988599","loss":"1030000"},
{"year":"2011","country":"Colombia","type":"Flood","sub_type":"Riverine flood","death":"135","affected":"498924","loss":"1290000"},
{"year":"2010","country":"Colombia","type":"Flood","sub_type":"Riverine flood","death":"418","affected":"2791999","loss":"1000000"},
{"year":"2010","country":"Colombia","type":"Flood","sub_type":"Riverine flood","death":"No Report","affected":"800","loss":"No Report"},
{"year":"2010","country":"Colombia","type":"Flood","sub_type":"Riverine flood","death":"No Report","affected":"3761","loss":"No Report"},
{"year":"2013","country":"Colombia","type":"Flood","sub_type":"Riverine flood","death":"7","affected":"39000","loss":"No Report"},
{"year":"2012","country":"Colombia","type":"Flood","sub_type":"Flash flood","death":"8","affected":"47164","loss":"No Report"},
{"year":"2012","country":"Colombia","type":"Flood","sub_type":"Riverine flood","death":"17","affected":"56000","loss":"40000"},
{"year":"2012","country":"Colombia","type":"Flood","sub_type":"Riverine flood","death":"48","affected":"8000","loss":"62000"},
{"year":"2012","country":"Colombia","type":"Flood","sub_type":"Riverine flood","death":"12","affected":"17518","loss":"No Report"},
{"year":"1959","country":"Colombia","type":"Flood","sub_type":"--","death":"184","affected":"No Report","loss":"No Report"},
{"year":"1994","country":"Colombia","type":"Flood","sub_type":"Coastal flood","death":"11","affected":"9950","loss":"No Report"},
{"year":"1994","country":"Colombia","type":"Flood","sub_type":"--","death":"7","affected":"1019","loss":"No Report"},
{"year":"1994","country":"Colombia","type":"Flood","sub_type":"Riverine flood","death":"19","affected":"7000","loss":"No Report"},
{"year":"1990","country":"Colombia","type":"Flood","sub_type":"--","death":"No Report","affected":"800","loss":"No Report"},
{"year":"1990","country":"Colombia","type":"Flood","sub_type":"--","death":"No Report","affected":"17179","loss":"No Report"},
{"year":"1990","country":"Colombia","type":"Flood","sub_type":"--","death":"No Report","affected":"1548","loss":"No Report"},
{"year":"1990","country":"Colombia","type":"Flood","sub_type":"--","death":"10","affected":"1098","loss":"No Report"},
{"year":"1993","country":"Colombia","type":"Flood","sub_type":"Flash flood","death":"63","affected":"80283","loss":"No Report"},
{"year":"1995","country":"Colombia","type":"Flood","sub_type":"Flash flood","death":"69","affected":"86000","loss":"No Report"},
{"year":"1997","country":"Colombia","type":"Flood","sub_type":"Riverine flood","death":"2","affected":"15000","loss":"3000"},
{"year":"1979","country":"Colombia","type":"Flood","sub_type":"--","death":"62","affected":"102000","loss":"No Report"},
{"year":"1996","country":"Colombia","type":"Flood","sub_type":"--","death":"No Report","affected":"180000","loss":"No Report"},
{"year":"1996","country":"Colombia","type":"Flood","sub_type":"--","death":"12","affected":"200","loss":"No Report"},
{"year":"1999","country":"Colombia","type":"Flood","sub_type":"--","death":"9","affected":"250","loss":"No Report"},
{"year":"1999","country":"Colombia","type":"Flood","sub_type":"--","death":"29","affected":"150040","loss":"3"},
{"year":"1999","country":"Colombia","type":"Flood","sub_type":"Coastal flood","death":"3","affected":"1100","loss":"No Report"},
{"year":"1976","country":"Colombia","type":"Flood","sub_type":"--","death":"47","affected":"No Report","loss":"No Report"},
{"year":"1973","country":"Colombia","type":"Flood","sub_type":"Riverine flood","death":"9","affected":"5172","loss":"No Report"},
{"year":"1971","country":"Colombia","type":"Flood","sub_type":"--","death":"No Report","affected":"No Report","loss":"No Report"},
{"year":"1971","country":"Colombia","type":"Flood","sub_type":"--","death":"51","affected":"No Report","loss":"No Report"},
{"year":"1970","country":"Colombia","type":"Flood","sub_type":"--","death":"No Report","affected":"4000","loss":"50"},
{"year":"1970","country":"Colombia","type":"Flood","sub_type":"--","death":"307","affected":"5105000","loss":"138800"},
{"year":"1970","country":"Colombia","type":"Flood","sub_type":"--","death":"100","affected":"No Report","loss":"No Report"},
{"year":"2002","country":"Colombia","type":"Flood","sub_type":"Riverine flood","death":"37","affected":"38000","loss":"No Report"},
{"year":"2002","country":"Colombia","type":"Flood","sub_type":"Riverine flood","death":"28","affected":"73013","loss":"No Report"},
{"year":"2002","country":"Colombia","type":"Flood","sub_type":"Riverine flood","death":"No Report","affected":"12500","loss":"No Report"},
{"year":"2002","country":"Colombia","type":"Flood","sub_type":"--","death":"No Report","affected":"1025","loss":"No Report"},
{"year":"2003","country":"Colombia","type":"Flood","sub_type":"Riverine flood","death":"2","affected":"2","loss":"No Report"},
{"year":"2003","country":"Colombia","type":"Flood","sub_type":"Riverine flood","death":"3","affected":"4000","loss":"No Report"},
{"year":"2003","country":"Colombia","type":"Flood","sub_type":"Riverine flood","death":"16","affected":"70057","loss":"No Report"},
{"year":"2003","country":"Colombia","type":"Flood","sub_type":"Riverine flood","death":"35","affected":"No Report","loss":"No Report"},
{"year":"2000","country":"Colombia","type":"Flood","sub_type":"--","death":"8","affected":"39000","loss":"No Report"},
{"year":"2000","country":"Colombia","type":"Flood","sub_type":"Riverine flood","death":"96","affected":"12000","loss":"No Report"},
{"year":"2000","country":"Colombia","type":"Flood","sub_type":"Riverine flood","death":"9","affected":"28000","loss":"No Report"},
{"year":"2001","country":"Colombia","type":"Flood","sub_type":"Riverine flood","death":"No Report","affected":"1500","loss":"No Report"},
{"year":"2001","country":"Colombia","type":"Flood","sub_type":"Riverine flood","death":"No Report","affected":"4500","loss":"No Report"},
{"year":"2006","country":"Colombia","type":"Flood","sub_type":"Riverine flood","death":"150","affected":"221465","loss":"No Report"},
{"year":"2007","country":"Colombia","type":"Flood","sub_type":"Riverine flood","death":"146","affected":"443173","loss":"No Report"},
{"year":"2007","country":"Colombia","type":"Flood","sub_type":"Riverine flood","death":"13","affected":"3000","loss":"No Report"},
{"year":"2007","country":"Colombia","type":"Flood","sub_type":"Riverine flood","death":"24","affected":"2035","loss":"No Report"},
{"year":"2007","country":"Colombia","type":"Flood","sub_type":"Riverine flood","death":"35","affected":"1162135","loss":"No Report"},
{"year":"2004","country":"Colombia","type":"Flood","sub_type":"Riverine flood","death":"79","affected":"186096","loss":"No Report"},
{"year":"2004","country":"Colombia","type":"Flood","sub_type":"Riverine flood","death":"36","affected":"345386","loss":"No Report"},
{"year":"2005","country":"Colombia","type":"Flood","sub_type":"Riverine flood","death":"56","affected":"85729","loss":"10000"},
{"year":"2005","country":"Colombia","type":"Flood","sub_type":"Riverine flood","death":"23","affected":"41530","loss":"No Report"},
{"year":"2005","country":"Colombia","type":"Flood","sub_type":"Riverine flood","death":"101","affected":"474607","loss":"No Report"},
{"year":"2008","country":"Colombia","type":"Flood","sub_type":"Riverine flood","death":"11","affected":"No Report","loss":"No Report"},
{"year":"2008","country":"Colombia","type":"Flood","sub_type":"Riverine flood","death":"76","affected":"1200091","loss":"No Report"},
{"year":"2008","country":"Colombia","type":"Flood","sub_type":"Riverine flood","death":"2","affected":"50000","loss":"No Report"},
{"year":"2009","country":"Colombia","type":"Flood","sub_type":"Riverine flood","death":"23","affected":"31250","loss":"No Report"}
]