[
{"year":"2009","country":"Comoros","type":"Flood","sub_type":"Riverine flood","death":"2","affected":"2500","loss":"No Report"},
{"year":"2012","country":"Comoros","type":"Flood","sub_type":"Riverine flood","death":"4","affected":"65137","loss":"5000"}
]