[
{"year":"1995","country":"Georgia","type":"Flood","sub_type":"Riverine flood","death":"1","affected":"300","loss":"2200"},
{"year":"1997","country":"Georgia","type":"Flood","sub_type":"--","death":"No Report","affected":"200","loss":"No Report"},
{"year":"1997","country":"Georgia","type":"Flood","sub_type":"Riverine flood","death":"4","affected":"300","loss":"10000"},
{"year":"1997","country":"Georgia","type":"Flood","sub_type":"Riverine flood","death":"3","affected":"No Report","loss":"19500"},
{"year":"2006","country":"Georgia","type":"Flood","sub_type":"Riverine flood","death":"No Report","affected":"600","loss":"No Report"},
{"year":"2004","country":"Georgia","type":"Flood","sub_type":"Riverine flood","death":"No Report","affected":"No Report","loss":"No Report"},
{"year":"2004","country":"Georgia","type":"Flood","sub_type":"Riverine flood","death":"1","affected":"90","loss":"2156"},
{"year":"2005","country":"Georgia","type":"Flood","sub_type":"Riverine flood","death":"No Report","affected":"2500","loss":"No Report"},
{"year":"2014","country":"Georgia","type":"Flood","sub_type":"Riverine flood","death":"No Report","affected":"120","loss":"No Report"},
{"year":"2011","country":"Georgia","type":"Flood","sub_type":"Flash flood","death":"7","affected":"1750","loss":"No Report"},
{"year":"2013","country":"Georgia","type":"Flood","sub_type":"Riverine flood","death":"No Report","affected":"24000","loss":"No Report"},
{"year":"2013","country":"Georgia","type":"Flood","sub_type":"Flash flood","death":"No Report","affected":"1000","loss":"No Report"},
{"year":"2012","country":"Georgia","type":"Flood","sub_type":"Flash flood","death":"5","affected":"100018","loss":"3000"}
]