[
{"year":"2003","country":"Indonesia","type":"Flood","sub_type":"Riverine flood","death":"3","affected":"10000","loss":"No Report"},
{"year":"2003","country":"Indonesia","type":"Flood","sub_type":"--","death":"No Report","affected":"230","loss":"No Report"},
{"year":"2003","country":"Indonesia","type":"Flood","sub_type":"--","death":"10","affected":"3700","loss":"No Report"},
{"year":"2003","country":"Indonesia","type":"Flood","sub_type":"Flash flood","death":"1","affected":"15000","loss":"No Report"},
{"year":"2003","country":"Indonesia","type":"Flood","sub_type":"Riverine flood","death":"3","affected":"33000","loss":"No Report"},
{"year":"2003","country":"Indonesia","type":"Flood","sub_type":"Flash flood","death":"241","affected":"1498","loss":"No Report"},
{"year":"2003","country":"Indonesia","type":"Flood","sub_type":"Riverine flood","death":"8","affected":"25000","loss":"No Report"},
{"year":"2003","country":"Indonesia","type":"Flood","sub_type":"Riverine flood","death":"148","affected":"350000","loss":"No Report"},
{"year":"1986","country":"Indonesia","type":"Flood","sub_type":"--","death":"2","affected":"38000","loss":"No Report"},
{"year":"1986","country":"Indonesia","type":"Flood","sub_type":"Riverine flood","death":"96","affected":"20000","loss":"No Report"},
{"year":"1986","country":"Indonesia","type":"Flood","sub_type":"--","death":"77","affected":"19000","loss":"No Report"},
{"year":"1986","country":"Indonesia","type":"Flood","sub_type":"--","death":"No Report","affected":"50000","loss":"No Report"},
{"year":"1987","country":"Indonesia","type":"Flood","sub_type":"Riverine flood","death":"3","affected":"26000","loss":"1700"},
{"year":"1987","country":"Indonesia","type":"Flood","sub_type":"--","death":"37","affected":"No Report","loss":"4000"},
{"year":"1987","country":"Indonesia","type":"Flood","sub_type":"--","death":"38","affected":"884","loss":"No Report"},
{"year":"1987","country":"Indonesia","type":"Flood","sub_type":"--","death":"119","affected":"No Report","loss":"60000"},
{"year":"1987","country":"Indonesia","type":"Flood","sub_type":"--","death":"4","affected":"2000","loss":"No Report"},
{"year":"1984","country":"Indonesia","type":"Flood","sub_type":"--","death":"No Report","affected":"2700","loss":"1500"},
{"year":"1984","country":"Indonesia","type":"Flood","sub_type":"--","death":"No Report","affected":"37500","loss":"No Report"},
{"year":"1984","country":"Indonesia","type":"Flood","sub_type":"--","death":"26","affected":"320000","loss":"No Report"},
{"year":"1985","country":"Indonesia","type":"Flood","sub_type":"Flash flood","death":"21","affected":"300","loss":"No Report"},
{"year":"1985","country":"Indonesia","type":"Flood","sub_type":"Riverine flood","death":"10","affected":"2000","loss":"No Report"},
{"year":"1985","country":"Indonesia","type":"Flood","sub_type":"Coastal flood","death":"11","affected":"2000","loss":"No Report"},
{"year":"1968","country":"Indonesia","type":"Flood","sub_type":"--","death":"12","affected":"150000","loss":"7831"},
{"year":"1983","country":"Indonesia","type":"Flood","sub_type":"--","death":"11","affected":"2000","loss":"No Report"},
{"year":"1983","country":"Indonesia","type":"Flood","sub_type":"--","death":"2","affected":"5000","loss":"No Report"},
{"year":"1983","country":"Indonesia","type":"Flood","sub_type":"--","death":"7","affected":"410497","loss":"7007"},
{"year":"1980","country":"Indonesia","type":"Flood","sub_type":"--","death":"153","affected":"2946","loss":"3400"},
{"year":"1981","country":"Indonesia","type":"Flood","sub_type":"--","death":"500","affected":"No Report","loss":"2200"},
{"year":"1981","country":"Indonesia","type":"Flood","sub_type":"Flash flood","death":"9","affected":"212000","loss":"No Report"},
{"year":"1981","country":"Indonesia","type":"Flood","sub_type":"--","death":"No Report","affected":"140000","loss":"No Report"},
{"year":"1966","country":"Indonesia","type":"Flood","sub_type":"Riverine flood","death":"176","affected":"524100","loss":"33000"},
{"year":"1967","country":"Indonesia","type":"Flood","sub_type":"--","death":"No Report","affected":"55000","loss":"No Report"},
{"year":"1967","country":"Indonesia","type":"Flood","sub_type":"--","death":"No Report","affected":"142000","loss":"No Report"},
{"year":"1967","country":"Indonesia","type":"Flood","sub_type":"--","death":"No Report","affected":"7000","loss":"No Report"},
{"year":"1967","country":"Indonesia","type":"Flood","sub_type":"--","death":"160","affected":"No Report","loss":"No Report"},
{"year":"1988","country":"Indonesia","type":"Flood","sub_type":"Riverine flood","death":"158","affected":"100000","loss":"4600"},
{"year":"1988","country":"Indonesia","type":"Flood","sub_type":"Riverine flood","death":"21","affected":"No Report","loss":"No Report"},
{"year":"1989","country":"Indonesia","type":"Flood","sub_type":"--","death":"No Report","affected":"29000","loss":"No Report"},
{"year":"1989","country":"Indonesia","type":"Flood","sub_type":"--","death":"18","affected":"32500","loss":"No Report"},
{"year":"2014","country":"Indonesia","type":"Flood","sub_type":"Riverine flood","death":"3","affected":"13860","loss":"No Report"},
{"year":"2014","country":"Indonesia","type":"Flood","sub_type":"Riverine flood","death":"20","affected":"128182","loss":"153000"},
{"year":"2014","country":"Indonesia","type":"Flood","sub_type":"Riverine flood","death":"No Report","affected":"260350","loss":"173000"},
{"year":"2014","country":"Indonesia","type":"Flood","sub_type":"Riverine flood","death":"23","affected":"20000","loss":"430000"},
{"year":"2014","country":"Indonesia","type":"Flood","sub_type":"Riverine flood","death":"11","affected":"4000","loss":"No Report"},
{"year":"2014","country":"Indonesia","type":"Flood","sub_type":"Riverine flood","death":"13","affected":"275","loss":"No Report"},
{"year":"2014","country":"Indonesia","type":"Flood","sub_type":"Riverine flood","death":"1","affected":"10420","loss":"No Report"},
{"year":"2011","country":"Indonesia","type":"Flood","sub_type":"Riverine flood","death":"No Report","affected":"12000","loss":"No Report"},
{"year":"2011","country":"Indonesia","type":"Flood","sub_type":"Riverine flood","death":"21","affected":"750","loss":"No Report"},
{"year":"2011","country":"Indonesia","type":"Flood","sub_type":"Flash flood","death":"No Report","affected":"1060","loss":"No Report"},
{"year":"2011","country":"Indonesia","type":"Flood","sub_type":"Riverine flood","death":"18","affected":"3000","loss":"No Report"},
{"year":"2011","country":"Indonesia","type":"Flood","sub_type":"Riverine flood","death":"10","affected":"54","loss":"No Report"},
{"year":"2011","country":"Indonesia","type":"Flood","sub_type":"Riverine flood","death":"13","affected":"3000","loss":"No Report"},
{"year":"2010","country":"Indonesia","type":"Flood","sub_type":"Riverine flood","death":"5","affected":"28500","loss":"No Report"},
{"year":"2010","country":"Indonesia","type":"Flood","sub_type":"Flash flood","death":"10","affected":"355","loss":"No Report"},
{"year":"2010","country":"Indonesia","type":"Flood","sub_type":"Riverine flood","death":"44","affected":"100","loss":"No Report"},
{"year":"2010","country":"Indonesia","type":"Flood","sub_type":"Riverine flood","death":"21","affected":"15007","loss":"No Report"},
{"year":"2010","country":"Indonesia","type":"Flood","sub_type":"Flash flood","death":"291","affected":"12428","loss":"78000"},
{"year":"2010","country":"Indonesia","type":"Flood","sub_type":"Flash flood","death":"16","affected":"200","loss":"No Report"},
{"year":"2010","country":"Indonesia","type":"Flood","sub_type":"Riverine flood","death":"24","affected":"No Report","loss":"No Report"},
{"year":"2013","country":"Indonesia","type":"Flood","sub_type":"Riverine flood","death":"34","affected":"248846","loss":"3000000"},
{"year":"2013","country":"Indonesia","type":"Flood","sub_type":"Riverine flood","death":"8","affected":"1000","loss":"No Report"},
{"year":"2013","country":"Indonesia","type":"Flood","sub_type":"Riverine flood","death":"17","affected":"58040","loss":"No Report"},
{"year":"2013","country":"Indonesia","type":"Flood","sub_type":"Riverine flood","death":"11","affected":"115000","loss":"No Report"},
{"year":"2013","country":"Indonesia","type":"Flood","sub_type":"Riverine flood","death":"12","affected":"8140","loss":"No Report"},
{"year":"2013","country":"Indonesia","type":"Flood","sub_type":"Riverine flood","death":"No Report","affected":"23640","loss":"No Report"},
{"year":"2013","country":"Indonesia","type":"Flood","sub_type":"Riverine flood","death":"No Report","affected":"16000","loss":"No Report"},
{"year":"2013","country":"Indonesia","type":"Flood","sub_type":"Riverine flood","death":"No Report","affected":"22500","loss":"No Report"},
{"year":"2013","country":"Indonesia","type":"Flood","sub_type":"Riverine flood","death":"4","affected":"84250","loss":"No Report"},
{"year":"2012","country":"Indonesia","type":"Flood","sub_type":"Riverine flood","death":"8","affected":"625","loss":"No Report"},
{"year":"2012","country":"Indonesia","type":"Flood","sub_type":"Flash flood","death":"No Report","affected":"1150","loss":"No Report"},
{"year":"2012","country":"Indonesia","type":"Flood","sub_type":"Riverine flood","death":"13","affected":"15210","loss":"No Report"},
{"year":"2012","country":"Indonesia","type":"Flood","sub_type":"Flash flood","death":"4","affected":"1045","loss":"No Report"},
{"year":"2012","country":"Indonesia","type":"Flood","sub_type":"Riverine flood","death":"3","affected":"10500","loss":"No Report"},
{"year":"2012","country":"Indonesia","type":"Flood","sub_type":"Riverine flood","death":"5","affected":"1020","loss":"No Report"},
{"year":"2012","country":"Indonesia","type":"Flood","sub_type":"Flash flood","death":"8","affected":"3770","loss":"No Report"},
{"year":"2005","country":"Indonesia","type":"Flood","sub_type":"Flash flood","death":"47","affected":"768","loss":"No Report"},
{"year":"2005","country":"Indonesia","type":"Flood","sub_type":"Flash flood","death":"28","affected":"12211","loss":"No Report"},
{"year":"2005","country":"Indonesia","type":"Flood","sub_type":"Flash flood","death":"79","affected":"7811","loss":"No Report"},
{"year":"1953","country":"Indonesia","type":"Flood","sub_type":"--","death":"114","affected":"No Report","loss":"No Report"},
{"year":"1982","country":"Indonesia","type":"Flood","sub_type":"--","death":"No Report","affected":"25000","loss":"No Report"},
{"year":"1982","country":"Indonesia","type":"Flood","sub_type":"--","death":"No Report","affected":"12500","loss":"No Report"},
{"year":"1982","country":"Indonesia","type":"Flood","sub_type":"--","death":"3","affected":"1500","loss":"No Report"},
{"year":"1991","country":"Indonesia","type":"Flood","sub_type":"Riverine flood","death":"97","affected":"No Report","loss":"No Report"},
{"year":"1991","country":"Indonesia","type":"Flood","sub_type":"Riverine flood","death":"15","affected":"240000","loss":"14800"},
{"year":"1990","country":"Indonesia","type":"Flood","sub_type":"Riverine flood","death":"169","affected":"21000","loss":"4800"},
{"year":"1990","country":"Indonesia","type":"Flood","sub_type":"--","death":"22","affected":"No Report","loss":"No Report"},
{"year":"1993","country":"Indonesia","type":"Flood","sub_type":"Riverine flood","death":"59","affected":"259553","loss":"19301"},
{"year":"1993","country":"Indonesia","type":"Flood","sub_type":"Flash flood","death":"72","affected":"8000","loss":"No Report"},
{"year":"1992","country":"Indonesia","type":"Flood","sub_type":"--","death":"57","affected":"265553","loss":"No Report"},
{"year":"1995","country":"Indonesia","type":"Flood","sub_type":"Riverine flood","death":"3","affected":"3000","loss":"No Report"},
{"year":"1995","country":"Indonesia","type":"Flood","sub_type":"Riverine flood","death":"47","affected":"36000","loss":"400"},
{"year":"1995","country":"Indonesia","type":"Flood","sub_type":"Riverine flood","death":"45","affected":"17500","loss":"No Report"},
{"year":"1995","country":"Indonesia","type":"Flood","sub_type":"Flash flood","death":"27","affected":"2200","loss":"No Report"},
{"year":"1995","country":"Indonesia","type":"Flood","sub_type":"Riverine flood","death":"18","affected":"201472","loss":"50000"},
{"year":"1994","country":"Indonesia","type":"Flood","sub_type":"Riverine flood","death":"4","affected":"30000","loss":"1900"},
{"year":"1994","country":"Indonesia","type":"Flood","sub_type":"--","death":"8","affected":"1000","loss":"No Report"},
{"year":"1994","country":"Indonesia","type":"Flood","sub_type":"--","death":"3","affected":"60000","loss":"No Report"},
{"year":"1994","country":"Indonesia","type":"Flood","sub_type":"Riverine flood","death":"33","affected":"187131","loss":"18145"},
{"year":"1994","country":"Indonesia","type":"Flood","sub_type":"--","death":"6","affected":"640","loss":"1500"},
{"year":"1994","country":"Indonesia","type":"Flood","sub_type":"Riverine flood","death":"5","affected":"50000","loss":"1700"},
{"year":"1979","country":"Indonesia","type":"Flood","sub_type":"--","death":"128","affected":"24350","loss":"3200"},
{"year":"1979","country":"Indonesia","type":"Flood","sub_type":"--","death":"23","affected":"4500","loss":"No Report"},
{"year":"1979","country":"Indonesia","type":"Flood","sub_type":"--","death":"13","affected":"6000","loss":"No Report"},
{"year":"1978","country":"Indonesia","type":"Flood","sub_type":"--","death":"41","affected":"7000","loss":"No Report"},
{"year":"1978","country":"Indonesia","type":"Flood","sub_type":"--","death":"21","affected":"8000","loss":"No Report"},
{"year":"1978","country":"Indonesia","type":"Flood","sub_type":"--","death":"No Report","affected":"200000","loss":"No Report"},
{"year":"1978","country":"Indonesia","type":"Flood","sub_type":"--","death":"8","affected":"66600","loss":"No Report"},
{"year":"1977","country":"Indonesia","type":"Flood","sub_type":"--","death":"10","affected":"260000","loss":"No Report"},
{"year":"1977","country":"Indonesia","type":"Flood","sub_type":"--","death":"No Report","affected":"25000","loss":"No Report"},
{"year":"1977","country":"Indonesia","type":"Flood","sub_type":"--","death":"12","affected":"5000","loss":"No Report"},
{"year":"1976","country":"Indonesia","type":"Flood","sub_type":"Flash flood","death":"163","affected":"20020","loss":"No Report"},
{"year":"1996","country":"Indonesia","type":"Flood","sub_type":"Riverine flood","death":"20","affected":"556000","loss":"434800"},
{"year":"1996","country":"Indonesia","type":"Flood","sub_type":"Riverine flood","death":"34","affected":"527","loss":"430"},
{"year":"1996","country":"Indonesia","type":"Flood","sub_type":"Flash flood","death":"13","affected":"5007","loss":"300"},
{"year":"1996","country":"Indonesia","type":"Flood","sub_type":"--","death":"14","affected":"10000","loss":"No Report"},
{"year":"1996","country":"Indonesia","type":"Flood","sub_type":"Riverine flood","death":"6","affected":"252965","loss":"126900"},
{"year":"1970","country":"Indonesia","type":"Flood","sub_type":"--","death":"82","affected":"No Report","loss":"No Report"},
{"year":"2002","country":"Indonesia","type":"Flood","sub_type":"Riverine flood","death":"21","affected":"40","loss":"No Report"},
{"year":"2002","country":"Indonesia","type":"Flood","sub_type":"Riverine flood","death":"13","affected":"2000","loss":"No Report"},
{"year":"2002","country":"Indonesia","type":"Flood","sub_type":"Riverine flood","death":"150","affected":"500750","loss":"350000"},
{"year":"2002","country":"Indonesia","type":"Flood","sub_type":"Riverine flood","death":"14","affected":"780","loss":"No Report"},
{"year":"2002","country":"Indonesia","type":"Flood","sub_type":"Riverine flood","death":"19","affected":"No Report","loss":"No Report"},
{"year":"2002","country":"Indonesia","type":"Flood","sub_type":"Riverine flood","death":"No Report","affected":"1000","loss":"No Report"},
{"year":"2002","country":"Indonesia","type":"Flood","sub_type":"Riverine flood","death":"13","affected":"87000","loss":"1600"},
{"year":"1999","country":"Indonesia","type":"Flood","sub_type":"--","death":"12","affected":"16000","loss":"No Report"},
{"year":"2000","country":"Indonesia","type":"Flood","sub_type":"Flash flood","death":"126","affected":"50000","loss":"79000"},
{"year":"2000","country":"Indonesia","type":"Flood","sub_type":"Riverine flood","death":"100","affected":"386021","loss":"34000"},
{"year":"2000","country":"Indonesia","type":"Flood","sub_type":"Flash flood","death":"38","affected":"39852","loss":"No Report"},
{"year":"2001","country":"Indonesia","type":"Flood","sub_type":"Flash flood","death":"130","affected":"80000","loss":"10000"},
{"year":"2001","country":"Indonesia","type":"Flood","sub_type":"Riverine flood","death":"257","affected":"3694","loss":"No Report"},
{"year":"2001","country":"Indonesia","type":"Flood","sub_type":"--","death":"No Report","affected":"No Report","loss":"No Report"},
{"year":"2001","country":"Indonesia","type":"Flood","sub_type":"Riverine flood","death":"15","affected":"2000","loss":"No Report"},
{"year":"2006","country":"Indonesia","type":"Flood","sub_type":"Riverine flood","death":"19","affected":"10000","loss":"27100"},
{"year":"2006","country":"Indonesia","type":"Flood","sub_type":"Flash flood","death":"39","affected":"17539","loss":"25000"},
{"year":"2006","country":"Indonesia","type":"Flood","sub_type":"Riverine flood","death":"22","affected":"402","loss":"No Report"},
{"year":"2006","country":"Indonesia","type":"Flood","sub_type":"Flash flood","death":"236","affected":"29231","loss":"55200"},
{"year":"2006","country":"Indonesia","type":"Flood","sub_type":"--","death":"41","affected":"No Report","loss":"No Report"},
{"year":"2006","country":"Indonesia","type":"Flood","sub_type":"Flash flood","death":"52","affected":"18250","loss":"No Report"},
{"year":"2006","country":"Indonesia","type":"Flood","sub_type":"Riverine flood","death":"No Report","affected":"5000","loss":"No Report"},
{"year":"2006","country":"Indonesia","type":"Flood","sub_type":"Flash flood","death":"236","affected":"618486","loss":"No Report"},
{"year":"2007","country":"Indonesia","type":"Flood","sub_type":"Riverine flood","death":"68","affected":"217087","loss":"971000"},
{"year":"2007","country":"Indonesia","type":"Flood","sub_type":"Flash flood","death":"74","affected":"11556","loss":"No Report"},
{"year":"2007","country":"Indonesia","type":"Flood","sub_type":"Riverine flood","death":"4","affected":"60000","loss":"No Report"},
{"year":"2007","country":"Indonesia","type":"Flood","sub_type":"Riverine flood","death":"58","affected":"5000","loss":"No Report"},
{"year":"2007","country":"Indonesia","type":"Flood","sub_type":"Riverine flood","death":"15","affected":"2000","loss":"No Report"},
{"year":"2007","country":"Indonesia","type":"Flood","sub_type":"Riverine flood","death":"88","affected":"3389","loss":"No Report"},
{"year":"2007","country":"Indonesia","type":"Flood","sub_type":"--","death":"4","affected":"1000","loss":"No Report"},
{"year":"2007","country":"Indonesia","type":"Flood","sub_type":"Riverine flood","death":"127","affected":"269515","loss":"No Report"},
{"year":"2004","country":"Indonesia","type":"Flood","sub_type":"Riverine flood","death":"5","affected":"13000","loss":"60000"},
{"year":"1998","country":"Indonesia","type":"Flood","sub_type":"--","death":"4","affected":"100000","loss":"No Report"},
{"year":"2008","country":"Indonesia","type":"Flood","sub_type":"Riverine flood","death":"No Report","affected":"1000","loss":"No Report"},
{"year":"2008","country":"Indonesia","type":"Flood","sub_type":"Riverine flood","death":"3","affected":"89761","loss":"No Report"},
{"year":"2008","country":"Indonesia","type":"Flood","sub_type":"Riverine flood","death":"3","affected":"40000","loss":"653"},
{"year":"2008","country":"Indonesia","type":"Flood","sub_type":"Flash flood","death":"14","affected":"7000","loss":"No Report"},
{"year":"2008","country":"Indonesia","type":"Flood","sub_type":"Riverine flood","death":"11","affected":"3500","loss":"No Report"},
{"year":"2008","country":"Indonesia","type":"Flood","sub_type":"Riverine flood","death":"3","affected":"12000","loss":"No Report"},
{"year":"2008","country":"Indonesia","type":"Flood","sub_type":"Riverine flood","death":"No Report","affected":"60000","loss":"No Report"},
{"year":"2008","country":"Indonesia","type":"Flood","sub_type":"Flash flood","death":"No Report","affected":"34514","loss":"No Report"},
{"year":"2008","country":"Indonesia","type":"Flood","sub_type":"Riverine flood","death":"16","affected":"118000","loss":"1080"},
{"year":"2008","country":"Indonesia","type":"Flood","sub_type":"Riverine flood","death":"33","affected":"84420","loss":"No Report"},
{"year":"2008","country":"Indonesia","type":"Flood","sub_type":"Riverine flood","death":"5","affected":"11000","loss":"No Report"},
{"year":"2008","country":"Indonesia","type":"Flood","sub_type":"Riverine flood","death":"24","affected":"15000","loss":"No Report"},
{"year":"2009","country":"Indonesia","type":"Flood","sub_type":"Flash flood","death":"18","affected":"12000","loss":"No Report"},
{"year":"2009","country":"Indonesia","type":"Flood","sub_type":"Riverine flood","death":"64","affected":"1600","loss":"No Report"},
{"year":"2009","country":"Indonesia","type":"Flood","sub_type":"Flash flood","death":"38","affected":"10000","loss":"No Report"},
{"year":"2009","country":"Indonesia","type":"Flood","sub_type":"Flash flood","death":"No Report","affected":"2500","loss":"No Report"},
{"year":"2009","country":"Indonesia","type":"Flood","sub_type":"Flash flood","death":"6","affected":"704","loss":"No Report"}
]