[
{"year":"2002","country":"Ireland","type":"Flood","sub_type":"Riverine flood","death":"No Report","affected":"300","loss":"No Report"},
{"year":"1987","country":"Ireland","type":"Flood","sub_type":"--","death":"No Report","affected":"No Report","loss":"No Report"},
{"year":"1993","country":"Ireland","type":"Flood","sub_type":"Flash flood","death":"3","affected":"3500","loss":"38000"},
{"year":"2009","country":"Ireland","type":"Flood","sub_type":"Riverine flood","death":"No Report","affected":"No Report","loss":"No Report"},
{"year":"2011","country":"Ireland","type":"Flood","sub_type":"Riverine flood","death":"2","affected":"600","loss":"325000"}
]