[
{"year":"1968","country":"Iraq","type":"Flood","sub_type":"--","death":"No Report","affected":"150000","loss":"3000"},
{"year":"1967","country":"Iraq","type":"Flood","sub_type":"--","death":"No Report","affected":"260000","loss":"5000"},
{"year":"1954","country":"Iraq","type":"Flood","sub_type":"--","death":"No Report","affected":"No Report","loss":"50000"},
{"year":"2006","country":"Iraq","type":"Flood","sub_type":"Riverine flood","death":"No Report","affected":"41890","loss":"1300"},
{"year":"2006","country":"Iraq","type":"Flood","sub_type":"Flash flood","death":"20","affected":"18020","loss":"No Report"},
{"year":"2004","country":"Iraq","type":"Flood","sub_type":"Flash flood","death":"No Report","affected":"8000","loss":"No Report"},
{"year":"2008","country":"Iraq","type":"Flood","sub_type":"Riverine flood","death":"4","affected":"600","loss":"No Report"},
{"year":"2009","country":"Iraq","type":"Flood","sub_type":"Flash flood","death":"2","affected":"3000","loss":"No Report"},
{"year":"2011","country":"Iraq","type":"Flood","sub_type":"Flash flood","death":"6","affected":"2001","loss":"No Report"},
{"year":"2013","country":"Iraq","type":"Flood","sub_type":"Riverine flood","death":"11","affected":"No Report","loss":"No Report"},
{"year":"2012","country":"Iraq","type":"Flood","sub_type":"Riverine flood","death":"4","affected":"No Report","loss":"No Report"}
]