[
{"year":"1995","country":"Libyan Arab Jamah","type":"Flood","sub_type":"--","death":"No Report","affected":"No Report","loss":"42200"},
{"year":"2013","country":"Libyan Arab Jamah","type":"Flood","sub_type":"Riverine flood","death":"16","affected":"2000","loss":"No Report"}
]