[
{"year":"1999","country":"Mali","type":"Flood","sub_type":"--","death":"2","affected":"2200","loss":"No Report"},
{"year":"1998","country":"Mali","type":"Flood","sub_type":"--","death":"3","affected":"1784","loss":"No Report"},
{"year":"1998","country":"Mali","type":"Flood","sub_type":"--","death":"No Report","affected":"4650","loss":"No Report"},
{"year":"1988","country":"Mali","type":"Flood","sub_type":"--","death":"17","affected":"10000","loss":"No Report"},
{"year":"1989","country":"Mali","type":"Flood","sub_type":"--","death":"1","affected":"14635","loss":"No Report"},
{"year":"2002","country":"Mali","type":"Flood","sub_type":"Riverine flood","death":"2","affected":"22519","loss":"No Report"},
{"year":"2003","country":"Mali","type":"Flood","sub_type":"Riverine flood","death":"No Report","affected":"10000","loss":"No Report"},
{"year":"2000","country":"Mali","type":"Flood","sub_type":"--","death":"15","affected":"No Report","loss":"No Report"},
{"year":"2001","country":"Mali","type":"Flood","sub_type":"Riverine flood","death":"2","affected":"3500","loss":"No Report"},
{"year":"2006","country":"Mali","type":"Flood","sub_type":"Flash flood","death":"1","affected":"1000","loss":"No Report"},
{"year":"2007","country":"Mali","type":"Flood","sub_type":"Riverine flood","death":"9","affected":"47255","loss":"No Report"},
{"year":"2005","country":"Mali","type":"Flood","sub_type":"Riverine flood","death":"No Report","affected":"125","loss":"No Report"},
{"year":"2005","country":"Mali","type":"Flood","sub_type":"--","death":"No Report","affected":"1735","loss":"No Report"},
{"year":"2008","country":"Mali","type":"Flood","sub_type":"Riverine flood","death":"No Report","affected":"2500","loss":"No Report"},
{"year":"2009","country":"Mali","type":"Flood","sub_type":"Riverine flood","death":"25","affected":"20406","loss":"No Report"},
{"year":"2011","country":"Mali","type":"Flood","sub_type":"Riverine flood","death":"1","affected":"15415","loss":"No Report"},
{"year":"2010","country":"Mali","type":"Flood","sub_type":"Riverine flood","death":"No Report","affected":"16000","loss":"No Report"},
{"year":"2010","country":"Mali","type":"Flood","sub_type":"Riverine flood","death":"No Report","affected":"16000","loss":"No Report"},
{"year":"2013","country":"Mali","type":"Flood","sub_type":"Riverine flood","death":"37","affected":"34700","loss":"No Report"},
{"year":"2013","country":"Mali","type":"Flood","sub_type":"Riverine flood","death":"No Report","affected":"11300","loss":"No Report"}
]