[
{"year":"1982","country":"Mongolia","type":"Flood","sub_type":"--","death":"No Report","affected":"No Report","loss":"No Report"},
{"year":"1994","country":"Mongolia","type":"Flood","sub_type":"--","death":"5","affected":"No Report","loss":"No Report"},
{"year":"1996","country":"Mongolia","type":"Flood","sub_type":"Flash flood","death":"41","affected":"No Report","loss":"No Report"},
{"year":"1966","country":"Mongolia","type":"Flood","sub_type":"--","death":"57","affected":"270000","loss":"25000"},
{"year":"2003","country":"Mongolia","type":"Flood","sub_type":"Flash flood","death":"15","affected":"1650","loss":"270"},
{"year":"2001","country":"Mongolia","type":"Flood","sub_type":"Riverine flood","death":"No Report","affected":"4000","loss":"No Report"},
{"year":"2009","country":"Mongolia","type":"Flood","sub_type":"Riverine flood","death":"26","affected":"15000","loss":"94"}
]