[
{"year":"2000","country":"Norway","type":"Flood","sub_type":"--","death":"No Report","affected":"600","loss":"No Report"},
{"year":"2001","country":"Norway","type":"Flood","sub_type":"--","death":"No Report","affected":"1500","loss":"No Report"},
{"year":"1995","country":"Norway","type":"Flood","sub_type":"Riverine flood","death":"1","affected":"4000","loss":"300000"}
]