[
{"year":"2003","country":"Philippines","type":"Flood","sub_type":"Flash flood","death":"No Report","affected":"3500","loss":"No Report"},
{"year":"1997","country":"Philippines","type":"Flood","sub_type":"Riverine flood","death":"18","affected":"105000","loss":"76"},
{"year":"1986","country":"Philippines","type":"Flood","sub_type":"--","death":"3","affected":"615","loss":"56"},
{"year":"1985","country":"Philippines","type":"Flood","sub_type":"--","death":"25","affected":"5000","loss":"No Report"},
{"year":"1985","country":"Philippines","type":"Flood","sub_type":"Riverine flood","death":"54","affected":"444","loss":"No Report"},
{"year":"1968","country":"Philippines","type":"Flood","sub_type":"--","death":"29","affected":"No Report","loss":"No Report"},
{"year":"1983","country":"Philippines","type":"Flood","sub_type":"--","death":"11","affected":"1835","loss":"3"},
{"year":"1980","country":"Philippines","type":"Flood","sub_type":"Flash flood","death":"2","affected":"25980","loss":"No Report"},
{"year":"1981","country":"Philippines","type":"Flood","sub_type":"--","death":"228","affected":"300000","loss":"27000"},
{"year":"1981","country":"Philippines","type":"Flood","sub_type":"--","death":"No Report","affected":"7500","loss":"No Report"},
{"year":"1981","country":"Philippines","type":"Flood","sub_type":"Flash flood","death":"125","affected":"122","loss":"No Report"},
{"year":"1989","country":"Philippines","type":"Flood","sub_type":"--","death":"44","affected":"260011","loss":"6000"},
{"year":"1989","country":"Philippines","type":"Flood","sub_type":"Riverine flood","death":"No Report","affected":"47500","loss":"No Report"},
{"year":"1996","country":"Philippines","type":"Flood","sub_type":"--","death":"No Report","affected":"96000","loss":"No Report"},
{"year":"2014","country":"Philippines","type":"Flood","sub_type":"Riverine flood","death":"No Report","affected":"99185","loss":"No Report"},
{"year":"2014","country":"Philippines","type":"Flood","sub_type":"Flash flood","death":"4","affected":"3770","loss":"No Report"},
{"year":"2011","country":"Philippines","type":"Flood","sub_type":"Riverine flood","death":"23","affected":"638418","loss":"12411"},
{"year":"2011","country":"Philippines","type":"Flood","sub_type":"Riverine flood","death":"11","affected":"2000","loss":"No Report"},
{"year":"2011","country":"Philippines","type":"Flood","sub_type":"Riverine flood","death":"16","affected":"241777","loss":"280"},
{"year":"2011","country":"Philippines","type":"Flood","sub_type":"Riverine flood","death":"12","affected":"944781","loss":"10666"},
{"year":"2011","country":"Philippines","type":"Flood","sub_type":"Flash flood","death":"31","affected":"121005","loss":"251"},
{"year":"2011","country":"Philippines","type":"Flood","sub_type":"Riverine flood","death":"No Report","affected":"2060","loss":"No Report"},
{"year":"2011","country":"Philippines","type":"Flood","sub_type":"Flash flood","death":"No Report","affected":"274","loss":"115"},
{"year":"2011","country":"Philippines","type":"Flood","sub_type":"Flash flood","death":"No Report","affected":"185","loss":"No Report"},
{"year":"2011","country":"Philippines","type":"Flood","sub_type":"Riverine flood","death":"5","affected":"16191","loss":"183"},
{"year":"2011","country":"Philippines","type":"Flood","sub_type":"Flash flood","death":"No Report","affected":"8610","loss":"178881"},
{"year":"2011","country":"Philippines","type":"Flood","sub_type":"Riverine flood","death":"12","affected":"171809","loss":"No Report"},
{"year":"2011","country":"Philippines","type":"Flood","sub_type":"Riverine flood","death":"10","affected":"39520","loss":"No Report"},
{"year":"2011","country":"Philippines","type":"Flood","sub_type":"Flash flood","death":"No Report","affected":"30858","loss":"No Report"},
{"year":"2011","country":"Philippines","type":"Flood","sub_type":"Flash flood","death":"No Report","affected":"469","loss":"No Report"},
{"year":"2011","country":"Philippines","type":"Flood","sub_type":"Flash flood","death":"2","affected":"871","loss":"No Report"},
{"year":"2010","country":"Philippines","type":"Flood","sub_type":"Flash flood","death":"2","affected":"40198","loss":"22"},
{"year":"2010","country":"Philippines","type":"Flood","sub_type":"Riverine flood","death":"1","affected":"15480","loss":"No Report"},
{"year":"2010","country":"Philippines","type":"Flood","sub_type":"Riverine flood","death":"27","affected":"40000","loss":"No Report"},
{"year":"2010","country":"Philippines","type":"Flood","sub_type":"Riverine flood","death":"No Report","affected":"200000","loss":"No Report"},
{"year":"2010","country":"Philippines","type":"Flood","sub_type":"Riverine flood","death":"No Report","affected":"80920","loss":"No Report"},
{"year":"2010","country":"Philippines","type":"Flood","sub_type":"Flash flood","death":"No Report","affected":"505","loss":"No Report"},
{"year":"2010","country":"Philippines","type":"Flood","sub_type":"Flash flood","death":"6","affected":"46713","loss":"3156"},
{"year":"2010","country":"Philippines","type":"Flood","sub_type":"Riverine flood","death":"16","affected":"450673","loss":"No Report"},
{"year":"2010","country":"Philippines","type":"Flood","sub_type":"Flash flood","death":"110","affected":"1972446","loss":"47411"},
{"year":"2013","country":"Philippines","type":"Flood","sub_type":"Flash flood","death":"10","affected":"507769","loss":"2800"},
{"year":"2013","country":"Philippines","type":"Flood","sub_type":"Riverine flood","death":"31","affected":"3096422","loss":"2190000"},
{"year":"2013","country":"Philippines","type":"Flood","sub_type":"Riverine flood","death":"11","affected":"100021","loss":"36000"},
{"year":"2013","country":"Philippines","type":"Flood","sub_type":"Riverine flood","death":"33","affected":"588155","loss":"4000"},
{"year":"2013","country":"Philippines","type":"Flood","sub_type":"Riverine flood","death":"20","affected":"207971","loss":"1988"},
{"year":"2012","country":"Philippines","type":"Flood","sub_type":"Riverine flood","death":"4","affected":"88570","loss":"No Report"},
{"year":"2012","country":"Philippines","type":"Flood","sub_type":"Riverine flood","death":"No Report","affected":"569","loss":"No Report"},
{"year":"2012","country":"Philippines","type":"Flood","sub_type":"Riverine flood","death":"No Report","affected":"25000","loss":"No Report"},
{"year":"2012","country":"Philippines","type":"Flood","sub_type":"Flash flood","death":"No Report","affected":"12300","loss":"No Report"},
{"year":"2012","country":"Philippines","type":"Flood","sub_type":"Flash flood","death":"1","affected":"700","loss":"No Report"},
{"year":"2012","country":"Philippines","type":"Flood","sub_type":"Riverine flood","death":"112","affected":"4451725","loss":"72330"},
{"year":"2012","country":"Philippines","type":"Flood","sub_type":"Riverine flood","death":"11","affected":"4835","loss":"2000"},
{"year":"2012","country":"Philippines","type":"Flood","sub_type":"Riverine flood","death":"29","affected":"30929","loss":"1000"},
{"year":"1982","country":"Philippines","type":"Flood","sub_type":"--","death":"13","affected":"200000","loss":"No Report"},
{"year":"1982","country":"Philippines","type":"Flood","sub_type":"Flash flood","death":"18","affected":"35","loss":"No Report"},
{"year":"1982","country":"Philippines","type":"Flood","sub_type":"--","death":"2","affected":"232","loss":"No Report"},
{"year":"1982","country":"Philippines","type":"Flood","sub_type":"Coastal flood","death":"No Report","affected":"818","loss":"60"},
{"year":"1991","country":"Philippines","type":"Flood","sub_type":"Coastal flood","death":"10","affected":"No Report","loss":"No Report"},
{"year":"1991","country":"Philippines","type":"Flood","sub_type":"Coastal flood","death":"50","affected":"No Report","loss":"No Report"},
{"year":"1991","country":"Philippines","type":"Flood","sub_type":"Flash flood","death":"10","affected":"823","loss":"1300"},
{"year":"1990","country":"Philippines","type":"Flood","sub_type":"Flash flood","death":"98","affected":"236","loss":"43"},
{"year":"1990","country":"Philippines","type":"Flood","sub_type":"Coastal flood","death":"28","affected":"50000","loss":"No Report"},
{"year":"1990","country":"Philippines","type":"Flood","sub_type":"--","death":"50","affected":"662500","loss":"No Report"},
{"year":"1993","country":"Philippines","type":"Flood","sub_type":"--","death":"5","affected":"258080","loss":"2600"},
{"year":"1993","country":"Philippines","type":"Flood","sub_type":"Riverine flood","death":"23","affected":"90000","loss":"37000"},
{"year":"1993","country":"Philippines","type":"Flood","sub_type":"Riverine flood","death":"25","affected":"4","loss":"No Report"},
{"year":"1992","country":"Philippines","type":"Flood","sub_type":"--","death":"60","affected":"942777","loss":"74200"},
{"year":"1992","country":"Philippines","type":"Flood","sub_type":"--","death":"19","affected":"58255","loss":"No Report"},
{"year":"1992","country":"Philippines","type":"Flood","sub_type":"--","death":"No Report","affected":"52800","loss":"No Report"},
{"year":"1995","country":"Philippines","type":"Flood","sub_type":"--","death":"No Report","affected":"25000","loss":"No Report"},
{"year":"1995","country":"Philippines","type":"Flood","sub_type":"Flash flood","death":"416","affected":"24485","loss":"700300"},
{"year":"1995","country":"Philippines","type":"Flood","sub_type":"--","death":"18","affected":"10000","loss":"No Report"},
{"year":"1995","country":"Philippines","type":"Flood","sub_type":"--","death":"17","affected":"17500","loss":"142"},
{"year":"1995","country":"Philippines","type":"Flood","sub_type":"--","death":"12","affected":"4500","loss":"No Report"},
{"year":"1995","country":"Philippines","type":"Flood","sub_type":"Riverine flood","death":"13","affected":"47700","loss":"500"},
{"year":"1994","country":"Philippines","type":"Flood","sub_type":"Coastal flood","death":"1","affected":"2762","loss":"37"},
{"year":"1994","country":"Philippines","type":"Flood","sub_type":"--","death":"50","affected":"774000","loss":"1650"},
{"year":"1994","country":"Philippines","type":"Flood","sub_type":"Riverine flood","death":"2","affected":"18000","loss":"1600"},
{"year":"1994","country":"Philippines","type":"Flood","sub_type":"Riverine flood","death":"9","affected":"16821","loss":"855"},
{"year":"1979","country":"Philippines","type":"Flood","sub_type":"Flash flood","death":"No Report","affected":"16000","loss":"6983"},
{"year":"1978","country":"Philippines","type":"Flood","sub_type":"--","death":"53","affected":"1000","loss":"No Report"},
{"year":"1978","country":"Philippines","type":"Flood","sub_type":"--","death":"No Report","affected":"1500","loss":"No Report"},
{"year":"1977","country":"Philippines","type":"Flood","sub_type":"--","death":"10","affected":"4300","loss":"No Report"},
{"year":"1977","country":"Philippines","type":"Flood","sub_type":"--","death":"No Report","affected":"1500","loss":"No Report"},
{"year":"1977","country":"Philippines","type":"Flood","sub_type":"--","death":"14","affected":"1499","loss":"1913"},
{"year":"1976","country":"Philippines","type":"Flood","sub_type":"Flash flood","death":"8","affected":"1565","loss":"No Report"},
{"year":"1976","country":"Philippines","type":"Flood","sub_type":"Flash flood","death":"10","affected":"14313","loss":"1553"},
{"year":"1975","country":"Philippines","type":"Flood","sub_type":"--","death":"No Report","affected":"99","loss":"No Report"},
{"year":"1974","country":"Philippines","type":"Flood","sub_type":"--","death":"94","affected":"1200000","loss":"17800"},
{"year":"1974","country":"Philippines","type":"Flood","sub_type":"--","death":"No Report","affected":"1823","loss":"No Report"},
{"year":"1973","country":"Philippines","type":"Flood","sub_type":"--","death":"3","affected":"5000","loss":"493"},
{"year":"1972","country":"Philippines","type":"Flood","sub_type":"--","death":"653","affected":"2770647","loss":"220000"},
{"year":"2002","country":"Philippines","type":"Flood","sub_type":"Riverine flood","death":"11","affected":"95008","loss":"392"},
{"year":"2002","country":"Philippines","type":"Flood","sub_type":"Riverine flood","death":"35","affected":"50000","loss":"1450"},
{"year":"2002","country":"Philippines","type":"Flood","sub_type":"Coastal flood","death":"26","affected":"3559","loss":"No Report"},
{"year":"2002","country":"Philippines","type":"Flood","sub_type":"Coastal flood","death":"18","affected":"7000","loss":"No Report"},
{"year":"1999","country":"Philippines","type":"Flood","sub_type":"Flash flood","death":"34","affected":"3703","loss":"6000"},
{"year":"1999","country":"Philippines","type":"Flood","sub_type":"--","death":"No Report","affected":"1300","loss":"No Report"},
{"year":"1999","country":"Philippines","type":"Flood","sub_type":"Flash flood","death":"130","affected":"2099763","loss":"18000"},
{"year":"1999","country":"Philippines","type":"Flood","sub_type":"Flash flood","death":"No Report","affected":"250","loss":"No Report"},
{"year":"2000","country":"Philippines","type":"Flood","sub_type":"Flash flood","death":"50","affected":"153885","loss":"4080"},
{"year":"2000","country":"Philippines","type":"Flood","sub_type":"Coastal flood","death":"No Report","affected":"5250","loss":"No Report"},
{"year":"2000","country":"Philippines","type":"Flood","sub_type":"Coastal flood","death":"5","affected":"6508","loss":"No Report"},
{"year":"2001","country":"Philippines","type":"Flood","sub_type":"Riverine flood","death":"2","affected":"12000","loss":"No Report"},
{"year":"2001","country":"Philippines","type":"Flood","sub_type":"Flash flood","death":"37","affected":"79000","loss":"8000"},
{"year":"2001","country":"Philippines","type":"Flood","sub_type":"Flash flood","death":"4","affected":"300","loss":"No Report"},
{"year":"2006","country":"Philippines","type":"Flood","sub_type":"Flash flood","death":"4","affected":"256641","loss":"9600"},
{"year":"2006","country":"Philippines","type":"Flood","sub_type":"Flash flood","death":"1","affected":"1000","loss":"No Report"},
{"year":"2006","country":"Philippines","type":"Flood","sub_type":"--","death":"26","affected":"15000","loss":"No Report"},
{"year":"2006","country":"Philippines","type":"Flood","sub_type":"Riverine flood","death":"3","affected":"4250","loss":"399"},
{"year":"2006","country":"Philippines","type":"Flood","sub_type":"Riverine flood","death":"2","affected":"40000","loss":"763"},
{"year":"2006","country":"Philippines","type":"Flood","sub_type":"Riverine flood","death":"No Report","affected":"415618","loss":"3395"},
{"year":"2007","country":"Philippines","type":"Flood","sub_type":"Riverine flood","death":"9","affected":"24508","loss":"4080"},
{"year":"2007","country":"Philippines","type":"Flood","sub_type":"Riverine flood","death":"20","affected":"No Report","loss":"No Report"},
{"year":"2007","country":"Philippines","type":"Flood","sub_type":"Coastal flood","death":"11","affected":"16463","loss":"2520"},
{"year":"2007","country":"Philippines","type":"Flood","sub_type":"Coastal flood","death":"No Report","affected":"33571","loss":"No Report"},
{"year":"2007","country":"Philippines","type":"Flood","sub_type":"Riverine flood","death":"No Report","affected":"12205","loss":"No Report"},
{"year":"2004","country":"Philippines","type":"Flood","sub_type":"Riverine flood","death":"27","affected":"194","loss":"No Report"},
{"year":"2004","country":"Philippines","type":"Flood","sub_type":"Riverine flood","death":"7","affected":"20000","loss":"No Report"},
{"year":"2004","country":"Philippines","type":"Flood","sub_type":"Flash flood","death":"15","affected":"1500","loss":"No Report"},
{"year":"2005","country":"Philippines","type":"Flood","sub_type":"--","death":"1","affected":"100","loss":"No Report"},
{"year":"2005","country":"Philippines","type":"Flood","sub_type":"Riverine flood","death":"4","affected":"192946","loss":"515"},
{"year":"2008","country":"Philippines","type":"Flood","sub_type":"Riverine flood","death":"63","affected":"875343","loss":"30733"},
{"year":"2008","country":"Philippines","type":"Flood","sub_type":"Flash flood","death":"1","affected":"1000","loss":"No Report"},
{"year":"2008","country":"Philippines","type":"Flood","sub_type":"Flash flood","death":"10","affected":"239763","loss":"4088"},
{"year":"2008","country":"Philippines","type":"Flood","sub_type":"Riverine flood","death":"29","affected":"50000","loss":"No Report"},
{"year":"2008","country":"Philippines","type":"Flood","sub_type":"Riverine flood","death":"No Report","affected":"39530","loss":"No Report"},
{"year":"2008","country":"Philippines","type":"Flood","sub_type":"Riverine flood","death":"No Report","affected":"29184","loss":"446"},
{"year":"2008","country":"Philippines","type":"Flood","sub_type":"Riverine flood","death":"7","affected":"2391","loss":"173"},
{"year":"2008","country":"Philippines","type":"Flood","sub_type":"Riverine flood","death":"6","affected":"365678","loss":"4137"},
{"year":"2009","country":"Philippines","type":"Flood","sub_type":"Riverine flood","death":"33","affected":"537991","loss":"6354"},
{"year":"2009","country":"Philippines","type":"Flood","sub_type":"Riverine flood","death":"No Report","affected":"1300","loss":"No Report"},
{"year":"2009","country":"Philippines","type":"Flood","sub_type":"Flash flood","death":"No Report","affected":"1345","loss":"No Report"},
{"year":"2009","country":"Philippines","type":"Flood","sub_type":"Flash flood","death":"No Report","affected":"34325","loss":"No Report"},
{"year":"2009","country":"Philippines","type":"Flood","sub_type":"Riverine flood","death":"No Report","affected":"715","loss":"No Report"},
{"year":"2009","country":"Philippines","type":"Flood","sub_type":"Flash flood","death":"No Report","affected":"920","loss":"No Report"},
{"year":"2009","country":"Philippines","type":"Flood","sub_type":"Flash flood","death":"22","affected":"505102","loss":"22960"},
{"year":"2009","country":"Philippines","type":"Flood","sub_type":"Riverine flood","death":"No Report","affected":"1578","loss":"No Report"}
]