[
{"year":"1987","country":"Poland","type":"Flood","sub_type":"Riverine flood","death":"No Report","affected":"No Report","loss":"500000"},
{"year":"1982","country":"Poland","type":"Flood","sub_type":"Riverine flood","death":"No Report","affected":"16824","loss":"53000"},
{"year":"1980","country":"Poland","type":"Flood","sub_type":"Riverine flood","death":"No Report","affected":"4500","loss":"No Report"},
{"year":"1997","country":"Poland","type":"Flood","sub_type":"Riverine flood","death":"55","affected":"224500","loss":"3500000"},
{"year":"1977","country":"Poland","type":"Flood","sub_type":"--","death":"No Report","affected":"1000","loss":"No Report"},
{"year":"1998","country":"Poland","type":"Flood","sub_type":"Riverine flood","death":"9","affected":"1200","loss":"No Report"},
{"year":"2001","country":"Poland","type":"Flood","sub_type":"Flash flood","death":"27","affected":"15000","loss":"700000"},
{"year":"2006","country":"Poland","type":"Flood","sub_type":"Riverine flood","death":"No Report","affected":"500","loss":"No Report"},
{"year":"2004","country":"Poland","type":"Flood","sub_type":"Riverine flood","death":"No Report","affected":"600","loss":"No Report"},
{"year":"2005","country":"Poland","type":"Flood","sub_type":"Riverine flood","death":"2","affected":"3600","loss":"No Report"},
{"year":"2009","country":"Poland","type":"Flood","sub_type":"Riverine flood","death":"1","affected":"150","loss":"100000"},
{"year":"2010","country":"Poland","type":"Flood","sub_type":"Riverine flood","death":"16","affected":"100000","loss":"3080000"},
{"year":"2010","country":"Poland","type":"Flood","sub_type":"Flash flood","death":"3","affected":"700","loss":"No Report"}
]