[
{"year":"2002","country":"Canary Is","type":"Flood","sub_type":"Riverine flood","death":"16","affected":"430","loss":"79923"},
{"year":"2001","country":"Canary Is","type":"Flood","sub_type":"--","death":"7","affected":"300","loss":"No Report"}
]