[
{"year":"1991","country":"Soviet Union","type":"Flood","sub_type":"--","death":"No Report","affected":"40000","loss":"2000000"},
{"year":"1991","country":"Soviet Union","type":"Flood","sub_type":"Riverine flood","death":"2","affected":"2000","loss":"22000"},
{"year":"1987","country":"Soviet Union","type":"Flood","sub_type":"--","death":"110","affected":"36000","loss":"546000"},
{"year":"1984","country":"Soviet Union","type":"Flood","sub_type":"--","death":"No Report","affected":"No Report","loss":"No Report"},
{"year":"1984","country":"Soviet Union","type":"Flood","sub_type":"Riverine flood","death":"No Report","affected":"No Report","loss":"No Report"},
{"year":"1985","country":"Soviet Union","type":"Flood","sub_type":"--","death":"No Report","affected":"10000","loss":"No Report"},
{"year":"1985","country":"Soviet Union","type":"Flood","sub_type":"--","death":"No Report","affected":"No Report","loss":"10000"},
{"year":"1982","country":"Soviet Union","type":"Flood","sub_type":"--","death":"No Report","affected":"No Report","loss":"No Report"},
{"year":"1982","country":"Soviet Union","type":"Flood","sub_type":"--","death":"No Report","affected":"586","loss":"No Report"},
{"year":"1983","country":"Soviet Union","type":"Flood","sub_type":"--","death":"No Report","affected":"No Report","loss":"No Report"},
{"year":"1983","country":"Soviet Union","type":"Flood","sub_type":"--","death":"No Report","affected":"1000","loss":"No Report"},
{"year":"1981","country":"Soviet Union","type":"Flood","sub_type":"--","death":"No Report","affected":"2000","loss":"No Report"},
{"year":"1988","country":"Soviet Union","type":"Flood","sub_type":"Riverine flood","death":"No Report","affected":"No Report","loss":"No Report"},
{"year":"1989","country":"Soviet Union","type":"Flood","sub_type":"Riverine flood","death":"17","affected":"No Report","loss":"640000"},
{"year":"1990","country":"Soviet Union","type":"Flood","sub_type":"Riverine flood","death":"14","affected":"20000","loss":"118600"},
{"year":"1990","country":"Soviet Union","type":"Flood","sub_type":"Riverine flood","death":"5","affected":"3000","loss":"59300"},
{"year":"1990","country":"Soviet Union","type":"Flood","sub_type":"--","death":"No Report","affected":"208","loss":"No Report"}
]