[
{"year":"1991","country":"Chad","type":"Flood","sub_type":"Riverine flood","death":"39","affected":"14","loss":"No Report"},
{"year":"1985","country":"Chad","type":"Flood","sub_type":"--","death":"No Report","affected":"500","loss":"No Report"},
{"year":"1995","country":"Chad","type":"Flood","sub_type":"--","death":"2","affected":"80686","loss":"No Report"},
{"year":"1999","country":"Chad","type":"Flood","sub_type":"Flash flood","death":"No Report","affected":"173506","loss":"No Report"},
{"year":"1998","country":"Chad","type":"Flood","sub_type":"--","death":"No Report","affected":"1000","loss":"No Report"},
{"year":"1988","country":"Chad","type":"Flood","sub_type":"Riverine flood","death":"43","affected":"47498","loss":"No Report"},
{"year":"2001","country":"Chad","type":"Flood","sub_type":"Flash flood","death":"100","affected":"175763","loss":"1000"},
{"year":"2006","country":"Chad","type":"Flood","sub_type":"Riverine flood","death":"52","affected":"No Report","loss":"No Report"},
{"year":"2007","country":"Chad","type":"Flood","sub_type":"Riverine flood","death":"12","affected":"170000","loss":"No Report"},
{"year":"2007","country":"Chad","type":"Flood","sub_type":"Riverine flood","death":"3","affected":"3000","loss":"No Report"},
{"year":"2008","country":"Chad","type":"Flood","sub_type":"Riverine flood","death":"No Report","affected":"6450","loss":"No Report"},
{"year":"2008","country":"Chad","type":"Flood","sub_type":"Riverine flood","death":"No Report","affected":"8000","loss":"No Report"},
{"year":"2009","country":"Chad","type":"Flood","sub_type":"Riverine flood","death":"3","affected":"4895","loss":"No Report"},
{"year":"2009","country":"Chad","type":"Flood","sub_type":"Riverine flood","death":"3","affected":"8020","loss":"No Report"},
{"year":"2010","country":"Chad","type":"Flood","sub_type":"Riverine flood","death":"24","affected":"144579","loss":"No Report"},
{"year":"2012","country":"Chad","type":"Flood","sub_type":"Riverine flood","death":"20","affected":"594831","loss":"10000"},
{"year":"2012","country":"Chad","type":"Flood","sub_type":"Riverine flood","death":"No Report","affected":"18800","loss":"No Report"}
]