[
{"year":"2003","country":"United States","type":"Flood","sub_type":"Riverine flood","death":"3","affected":"1200","loss":"106000"},
{"year":"2003","country":"United States","type":"Flood","sub_type":"Riverine flood","death":"No Report","affected":"No Report","loss":"No Report"},
{"year":"2003","country":"United States","type":"Flood","sub_type":"Flash flood","death":"18","affected":"No Report","loss":"No Report"},
{"year":"2003","country":"United States","type":"Flood","sub_type":"Riverine flood","death":"3","affected":"2000","loss":"17000"},
{"year":"1986","country":"United States","type":"Flood","sub_type":"--","death":"13","affected":"No Report","loss":"No Report"},
{"year":"1986","country":"United States","type":"Flood","sub_type":"--","death":"No Report","affected":"No Report","loss":"No Report"},
{"year":"1986","country":"United States","type":"Flood","sub_type":"--","death":"No Report","affected":"2000","loss":"25000"},
{"year":"1984","country":"United States","type":"Flood","sub_type":"--","death":"No Report","affected":"5500","loss":"35000"},
{"year":"1984","country":"United States","type":"Flood","sub_type":"--","death":"10","affected":"No Report","loss":"No Report"},
{"year":"1984","country":"United States","type":"Flood","sub_type":"--","death":"18","affected":"No Report","loss":"30000"},
{"year":"1985","country":"United States","type":"Flood","sub_type":"Riverine flood","death":"No Report","affected":"300","loss":"No Report"},
{"year":"1985","country":"United States","type":"Flood","sub_type":"Riverine flood","death":"1","affected":"200","loss":"No Report"},
{"year":"1985","country":"United States","type":"Flood","sub_type":"Riverine flood","death":"No Report","affected":"400","loss":"400"},
{"year":"1985","country":"United States","type":"Flood","sub_type":"Riverine flood","death":"7","affected":"2250","loss":"12100"},
{"year":"1985","country":"United States","type":"Flood","sub_type":"Riverine flood","death":"4","affected":"2400","loss":"No Report"},
{"year":"1982","country":"United States","type":"Flood","sub_type":"--","death":"11","affected":"No Report","loss":"No Report"},
{"year":"1982","country":"United States","type":"Flood","sub_type":"--","death":"No Report","affected":"No Report","loss":"33900"},
{"year":"1969","country":"United States","type":"Flood","sub_type":"--","death":"115","affected":"No Report","loss":"400000"},
{"year":"1980","country":"United States","type":"Flood","sub_type":"--","death":"No Report","affected":"1000","loss":"No Report"},
{"year":"1980","country":"United States","type":"Flood","sub_type":"--","death":"No Report","affected":"10000","loss":"No Report"},
{"year":"1980","country":"United States","type":"Flood","sub_type":"--","death":"36","affected":"106000","loss":"350000"},
{"year":"1981","country":"United States","type":"Flood","sub_type":"--","death":"30","affected":"No Report","loss":"No Report"},
{"year":"1964","country":"United States","type":"Flood","sub_type":"--","death":"45","affected":"No Report","loss":"820000"},
{"year":"1964","country":"United States","type":"Flood","sub_type":"--","death":"64","affected":"No Report","loss":"No Report"},
{"year":"1988","country":"United States","type":"Flood","sub_type":"--","death":"No Report","affected":"No Report","loss":"No Report"},
{"year":"1988","country":"United States","type":"Flood","sub_type":"--","death":"No Report","affected":"No Report","loss":"No Report"},
{"year":"1988","country":"United States","type":"Flood","sub_type":"--","death":"No Report","affected":"No Report","loss":"No Report"},
{"year":"2014","country":"United States","type":"Flood","sub_type":"Flash flood","death":"No Report","affected":"No Report","loss":"90000"},
{"year":"2011","country":"United States","type":"Flood","sub_type":"Riverine flood","death":"1","affected":"25000","loss":"No Report"},
{"year":"2011","country":"United States","type":"Flood","sub_type":"Riverine flood","death":"2","affected":"100","loss":"No Report"},
{"year":"2011","country":"United States","type":"Flood","sub_type":"Riverine flood","death":"9","affected":"No Report","loss":"4600000"},
{"year":"2011","country":"United States","type":"Flood","sub_type":"Riverine flood","death":"5","affected":"11000","loss":"2000000"},
{"year":"2010","country":"United States","type":"Flood","sub_type":"Riverine flood","death":"No Report","affected":"No Report","loss":"No Report"},
{"year":"2010","country":"United States","type":"Flood","sub_type":"Riverine flood","death":"20","affected":"No Report","loss":"No Report"},
{"year":"2010","country":"United States","type":"Flood","sub_type":"Riverine flood","death":"No Report","affected":"1000","loss":"No Report"},
{"year":"2013","country":"United States","type":"Flood","sub_type":"Riverine flood","death":"2","affected":"1425","loss":"25000"},
{"year":"2013","country":"United States","type":"Flood","sub_type":"Riverine flood","death":"3","affected":"6000","loss":"25000"},
{"year":"2013","country":"United States","type":"Flood","sub_type":"Riverine flood","death":"3","affected":"300","loss":"No Report"},
{"year":"2013","country":"United States","type":"Flood","sub_type":"Riverine flood","death":"5","affected":"300","loss":"325000"},
{"year":"2013","country":"United States","type":"Flood","sub_type":"Riverine flood","death":"9","affected":"21900","loss":"1900000"},
{"year":"2013","country":"United States","type":"Flood","sub_type":"Riverine flood","death":"4","affected":"4800","loss":"No Report"},
{"year":"2013","country":"United States","type":"Flood","sub_type":"Riverine flood","death":"5","affected":"No Report","loss":"No Report"},
{"year":"2012","country":"United States","type":"Flood","sub_type":"Riverine flood","death":"2","affected":"300","loss":"174000"},
{"year":"2005","country":"United States","type":"Flood","sub_type":"Riverine flood","death":"28","affected":"508","loss":"200000"},
{"year":"2005","country":"United States","type":"Flood","sub_type":"Riverine flood","death":"9","affected":"150","loss":"250000"},
{"year":"2005","country":"United States","type":"Flood","sub_type":"Riverine flood","death":"2","affected":"11000","loss":"30000"},
{"year":"2005","country":"United States","type":"Flood","sub_type":"Flash flood","death":"No Report","affected":"No Report","loss":"5330"},
{"year":"2005","country":"United States","type":"Flood","sub_type":"Riverine flood","death":"11","affected":"3000","loss":"No Report"},
{"year":"2005","country":"United States","type":"Flood","sub_type":"Riverine flood","death":"3","affected":"3600","loss":"245000"},
{"year":"1955","country":"United States","type":"Flood","sub_type":"--","death":"74","affected":"No Report","loss":"No Report"},
{"year":"1951","country":"United States","type":"Flood","sub_type":"--","death":"41","affected":"No Report","loss":"1029000"},
{"year":"1950","country":"United States","type":"Flood","sub_type":"--","death":"33","affected":"No Report","loss":"No Report"},
{"year":"1983","country":"United States","type":"Flood","sub_type":"--","death":"No Report","affected":"No Report","loss":"300000"},
{"year":"1983","country":"United States","type":"Flood","sub_type":"--","death":"10","affected":"No Report","loss":"100000"},
{"year":"1991","country":"United States","type":"Flood","sub_type":"--","death":"No Report","affected":"No Report","loss":"No Report"},
{"year":"1991","country":"United States","type":"Flood","sub_type":"Riverine flood","death":"No Report","affected":"No Report","loss":"No Report"},
{"year":"1991","country":"United States","type":"Flood","sub_type":"Riverine flood","death":"No Report","affected":"No Report","loss":"No Report"},
{"year":"1991","country":"United States","type":"Flood","sub_type":"Riverine flood","death":"No Report","affected":"No Report","loss":"No Report"},
{"year":"1991","country":"United States","type":"Flood","sub_type":"Riverine flood","death":"No Report","affected":"No Report","loss":"No Report"},
{"year":"1991","country":"United States","type":"Flood","sub_type":"Riverine flood","death":"No Report","affected":"No Report","loss":"No Report"},
{"year":"1991","country":"United States","type":"Flood","sub_type":"Riverine flood","death":"No Report","affected":"No Report","loss":"No Report"},
{"year":"1991","country":"United States","type":"Flood","sub_type":"Riverine flood","death":"No Report","affected":"No Report","loss":"No Report"},
{"year":"1991","country":"United States","type":"Flood","sub_type":"Riverine flood","death":"No Report","affected":"No Report","loss":"No Report"},
{"year":"1991","country":"United States","type":"Flood","sub_type":"Riverine flood","death":"No Report","affected":"No Report","loss":"No Report"},
{"year":"1991","country":"United States","type":"Flood","sub_type":"Riverine flood","death":"No Report","affected":"No Report","loss":"No Report"},
{"year":"1991","country":"United States","type":"Flood","sub_type":"Riverine flood","death":"No Report","affected":"No Report","loss":"No Report"},
{"year":"1991","country":"United States","type":"Flood","sub_type":"Riverine flood","death":"No Report","affected":"No Report","loss":"No Report"},
{"year":"1991","country":"United States","type":"Flood","sub_type":"--","death":"15","affected":"No Report","loss":"850000"},
{"year":"1990","country":"United States","type":"Flood","sub_type":"--","death":"35","affected":"No Report","loss":"No Report"},
{"year":"1990","country":"United States","type":"Flood","sub_type":"Riverine flood","death":"3","affected":"3000","loss":"45000"},
{"year":"1990","country":"United States","type":"Flood","sub_type":"Riverine flood","death":"No Report","affected":"150","loss":"No Report"},
{"year":"1990","country":"United States","type":"Flood","sub_type":"Flash flood","death":"No Report","affected":"200","loss":"No Report"},
{"year":"1993","country":"United States","type":"Flood","sub_type":"Riverine flood","death":"48","affected":"31000","loss":"12000000"},
{"year":"1993","country":"United States","type":"Flood","sub_type":"--","death":"5","affected":"No Report","loss":"No Report"},
{"year":"1993","country":"United States","type":"Flood","sub_type":"--","death":"No Report","affected":"5200","loss":"190000"},
{"year":"1993","country":"United States","type":"Flood","sub_type":"Riverine flood","death":"2","affected":"1500","loss":"No Report"},
{"year":"1993","country":"United States","type":"Flood","sub_type":"Riverine flood","death":"43","affected":"6000","loss":"100000"},
{"year":"1993","country":"United States","type":"Flood","sub_type":"Flash flood","death":"No Report","affected":"200","loss":"No Report"},
{"year":"1995","country":"United States","type":"Flood","sub_type":"Riverine flood","death":"6","affected":"20000","loss":"3000000"},
{"year":"1995","country":"United States","type":"Flood","sub_type":"--","death":"No Report","affected":"75000","loss":"No Report"},
{"year":"1995","country":"United States","type":"Flood","sub_type":"--","death":"8","affected":"No Report","loss":"125000"},
{"year":"1995","country":"United States","type":"Flood","sub_type":"Riverine flood","death":"2","affected":"15000","loss":"100000"},
{"year":"1995","country":"United States","type":"Flood","sub_type":"Riverine flood","death":"No Report","affected":"300","loss":"10000"},
{"year":"1995","country":"United States","type":"Flood","sub_type":"Riverine flood","death":"3","affected":"5000","loss":"10000"},
{"year":"1994","country":"United States","type":"Flood","sub_type":"Riverine flood","death":"37","affected":"14070","loss":"700000"},
{"year":"1997","country":"United States","type":"Flood","sub_type":"Riverine flood","death":"20","affected":"125000","loss":"1500000"},
{"year":"1997","country":"United States","type":"Flood","sub_type":"Riverine flood","death":"31","affected":"No Report","loss":"500000"},
{"year":"1997","country":"United States","type":"Flood","sub_type":"--","death":"3","affected":"50400","loss":"5000000"},
{"year":"1997","country":"United States","type":"Flood","sub_type":"--","death":"2","affected":"200","loss":"No Report"},
{"year":"1997","country":"United States","type":"Flood","sub_type":"Riverine flood","death":"11","affected":"350","loss":"No Report"},
{"year":"1997","country":"United States","type":"Flood","sub_type":"--","death":"No Report","affected":"15000","loss":"No Report"},
{"year":"1997","country":"United States","type":"Flood","sub_type":"Riverine flood","death":"No Report","affected":"No Report","loss":"245000"},
{"year":"1997","country":"United States","type":"Flood","sub_type":"Riverine flood","death":"5","affected":"424","loss":"100000"},
{"year":"1978","country":"United States","type":"Flood","sub_type":"--","death":"27","affected":"No Report","loss":"No Report"},
{"year":"1977","country":"United States","type":"Flood","sub_type":"Flash flood","death":"76","affected":"2700","loss":"200000"},
{"year":"1977","country":"United States","type":"Flood","sub_type":"Flash flood","death":"25","affected":"No Report","loss":"No Report"},
{"year":"1977","country":"United States","type":"Flood","sub_type":"--","death":"39","affected":"No Report","loss":"No Report"},
{"year":"1976","country":"United States","type":"Flood","sub_type":"--","death":"139","affected":"No Report","loss":"41000"},
{"year":"1996","country":"United States","type":"Flood","sub_type":"Riverine flood","death":"35","affected":"200000","loss":"700000"},
{"year":"1996","country":"United States","type":"Flood","sub_type":"Riverine flood","death":"7","affected":"24900","loss":"500000"},
{"year":"1996","country":"United States","type":"Flood","sub_type":"Riverine flood","death":"28","affected":"18100","loss":"1500000"},
{"year":"1996","country":"United States","type":"Flood","sub_type":"Riverine flood","death":"2","affected":"115","loss":"20000"},
{"year":"1973","country":"United States","type":"Flood","sub_type":"--","death":"23","affected":"No Report","loss":"500000"},
{"year":"1973","country":"United States","type":"Flood","sub_type":"--","death":"33","affected":"No Report","loss":"No Report"},
{"year":"1972","country":"United States","type":"Flood","sub_type":"--","death":"237","affected":"3000","loss":"120000"},
{"year":"2002","country":"United States","type":"Flood","sub_type":"Riverine flood","death":"7","affected":"No Report","loss":"No Report"},
{"year":"2002","country":"United States","type":"Flood","sub_type":"Riverine flood","death":"9","affected":"1000","loss":"13000"},
{"year":"2002","country":"United States","type":"Flood","sub_type":"Riverine flood","death":"10","affected":"144000","loss":"1000000"},
{"year":"2002","country":"United States","type":"Flood","sub_type":"Riverine flood","death":"No Report","affected":"750","loss":"No Report"},
{"year":"1999","country":"United States","type":"Flood","sub_type":"--","death":"No Report","affected":"100","loss":"300"},
{"year":"2000","country":"United States","type":"Flood","sub_type":"Riverine flood","death":"3","affected":"231","loss":"No Report"},
{"year":"2000","country":"United States","type":"Flood","sub_type":"Flash flood","death":"2","affected":"2000","loss":"No Report"},
{"year":"2000","country":"United States","type":"Flood","sub_type":"Flash flood","death":"1","affected":"300","loss":"No Report"},
{"year":"2000","country":"United States","type":"Flood","sub_type":"--","death":"No Report","affected":"240","loss":"No Report"},
{"year":"2000","country":"United States","type":"Flood","sub_type":"--","death":"2","affected":"300","loss":"100000"},
{"year":"2000","country":"United States","type":"Flood","sub_type":"Riverine flood","death":"No Report","affected":"175","loss":"166000"},
{"year":"2000","country":"United States","type":"Flood","sub_type":"--","death":"No Report","affected":"300","loss":"No Report"},
{"year":"2000","country":"United States","type":"Flood","sub_type":"Riverine flood","death":"No Report","affected":"100","loss":"20000"},
{"year":"2001","country":"United States","type":"Flood","sub_type":"Riverine flood","death":"No Report","affected":"200","loss":"No Report"},
{"year":"2001","country":"United States","type":"Flood","sub_type":"Riverine flood","death":"1","affected":"4400","loss":"13000"},
{"year":"2001","country":"United States","type":"Flood","sub_type":"Riverine flood","death":"2","affected":"15000","loss":"20000"},
{"year":"2001","country":"United States","type":"Flood","sub_type":"Riverine flood","death":"9","affected":"600","loss":"No Report"},
{"year":"2001","country":"United States","type":"Flood","sub_type":"--","death":"No Report","affected":"3600","loss":"No Report"},
{"year":"2006","country":"United States","type":"Flood","sub_type":"Riverine flood","death":"1","affected":"600","loss":"259000"},
{"year":"2006","country":"United States","type":"Flood","sub_type":"Riverine flood","death":"7","affected":"No Report","loss":"12000"},
{"year":"2006","country":"United States","type":"Flood","sub_type":"Riverine flood","death":"2","affected":"2500","loss":"85000"},
{"year":"2006","country":"United States","type":"Flood","sub_type":"Riverine flood","death":"11","affected":"65000","loss":"1000000"},
{"year":"2006","country":"United States","type":"Flood","sub_type":"Riverine flood","death":"2","affected":"2400","loss":"7000"},
{"year":"2006","country":"United States","type":"Flood","sub_type":"Riverine flood","death":"No Report","affected":"No Report","loss":"100000"},
{"year":"2006","country":"United States","type":"Flood","sub_type":"Riverine flood","death":"1","affected":"600","loss":"No Report"},
{"year":"2006","country":"United States","type":"Flood","sub_type":"Riverine flood","death":"No Report","affected":"150","loss":"15500"},
{"year":"2006","country":"United States","type":"Flood","sub_type":"Riverine flood","death":"14","affected":"1210","loss":"No Report"},
{"year":"2006","country":"United States","type":"Flood","sub_type":"Riverine flood","death":"No Report","affected":"100","loss":"No Report"},
{"year":"2006","country":"United States","type":"Flood","sub_type":"Riverine flood","death":"2","affected":"1500","loss":"No Report"},
{"year":"2007","country":"United States","type":"Flood","sub_type":"Riverine flood","death":"24","affected":"No Report","loss":"No Report"},
{"year":"2007","country":"United States","type":"Flood","sub_type":"Riverine flood","death":"8","affected":"100","loss":"No Report"},
{"year":"2007","country":"United States","type":"Flood","sub_type":"Riverine flood","death":"8","affected":"5000","loss":"No Report"},
{"year":"2007","country":"United States","type":"Flood","sub_type":"Flash flood","death":"4","affected":"120","loss":"No Report"},
{"year":"2007","country":"United States","type":"Flood","sub_type":"Riverine flood","death":"10","affected":"750","loss":"28000"},
{"year":"2007","country":"United States","type":"Flood","sub_type":"Riverine flood","death":"26","affected":"2840","loss":"700000"},
{"year":"2004","country":"United States","type":"Flood","sub_type":"Riverine flood","death":"No Report","affected":"306","loss":"4500"},
{"year":"2004","country":"United States","type":"Flood","sub_type":"Riverine flood","death":"No Report","affected":"4929","loss":"No Report"},
{"year":"2004","country":"United States","type":"Flood","sub_type":"Riverine flood","death":"No Report","affected":"105","loss":"1000"},
{"year":"2004","country":"United States","type":"Flood","sub_type":"Riverine flood","death":"1","affected":"No Report","loss":"500000"},
{"year":"1998","country":"United States","type":"Flood","sub_type":"--","death":"7","affected":"2200","loss":"No Report"},
{"year":"1998","country":"United States","type":"Flood","sub_type":"Riverine flood","death":"11","affected":"18000","loss":"270000"},
{"year":"1998","country":"United States","type":"Flood","sub_type":"Flash flood","death":"11","affected":"14000","loss":"469000"},
{"year":"1998","country":"United States","type":"Flood","sub_type":"Flash flood","death":"No Report","affected":"No Report","loss":"No Report"},
{"year":"1998","country":"United States","type":"Flood","sub_type":"Riverine flood","death":"No Report","affected":"1200","loss":"60000"},
{"year":"1998","country":"United States","type":"Flood","sub_type":"Flash flood","death":"2","affected":"600","loss":"62500"},
{"year":"1998","country":"United States","type":"Flood","sub_type":"Riverine flood","death":"No Report","affected":"1000","loss":"200500"},
{"year":"2008","country":"United States","type":"Flood","sub_type":"Riverine flood","death":"2","affected":"1500","loss":"No Report"},
{"year":"2008","country":"United States","type":"Flood","sub_type":"Riverine flood","death":"18","affected":"1000","loss":"2000"},
{"year":"2008","country":"United States","type":"Flood","sub_type":"Riverine flood","death":"24","affected":"11000148","loss":"10000000"},
{"year":"2008","country":"United States","type":"Flood","sub_type":"Riverine flood","death":"No Report","affected":"30000","loss":"No Report"},
{"year":"2009","country":"United States","type":"Flood","sub_type":"Riverine flood","death":"2","affected":"5060","loss":"166000"},
{"year":"2009","country":"United States","type":"Flood","sub_type":"Riverine flood","death":"No Report","affected":"900","loss":"No Report"},
{"year":"2009","country":"United States","type":"Flood","sub_type":"Riverine flood","death":"No Report","affected":"1000","loss":"No Report"},
{"year":"2009","country":"United States","type":"Flood","sub_type":"Riverine flood","death":"9","affected":"3000","loss":"500000"}
]