{
"BFA":{"fillKey":"0~3 cases","number":"1"},
"MRT":{"fillKey":"0~3 cases","number":"1"},
"IRQ":{"fillKey":"0~3 cases","number":"1"},
"AFG":{"fillKey":"0~3 cases","number":"1"},
"SOM":{"fillKey":"0~3 cases","number":"1"},
"PER":{"fillKey":"0~3 cases","number":"1"},
"HKG":{"fillKey":"0~3 cases","number":"2"},
"SEN":{"fillKey":"0~3 cases","number":"1"},
"ETH":{"fillKey":"0~3 cases","number":"1"},
"TCD":{"fillKey":"0~3 cases","number":"1"},
"YMN":{"fillKey":"0~3 cases","number":"1"}
}