{
"AGO":{"fillKey":"0~3 cases","number":"1"},
"KEN":{"fillKey":"0~3 cases","number":"1"},
"HND":{"fillKey":"0~3 cases","number":"1"},
"USA":{"fillKey":"3~5 cases","number":"3"},
"ESP":{"fillKey":"0~3 cases","number":"1"},
"ZAF":{"fillKey":"0~3 cases","number":"1"},
"SOM":{"fillKey":"0~3 cases","number":"1"},
"PER":{"fillKey":"0~3 cases","number":"1"},
"TZA":{"fillKey":"0~3 cases","number":"1"},
"PRT":{"fillKey":"0~3 cases","number":"2"},
"BOL":{"fillKey":"0~3 cases","number":"1"},
"CUB":{"fillKey":"0~3 cases","number":"1"},
"RUS":{"fillKey":"0~3 cases","number":"1"},
"GIN":{"fillKey":"0~3 cases","number":"1"},
"KOR":{"fillKey":"0~3 cases","number":"1"},
"BRA":{"fillKey":"0~3 cases","number":"1"}
}