{
"MOZ":{"fillKey":"0~3 cases","number":"1"},
"TTO":{"fillKey":"0~3 cases","number":"1"},
"MRT":{"fillKey":"0~3 cases","number":"1"},
"ISR":{"fillKey":"0~3 cases","number":"1"},
"MLI":{"fillKey":"0~3 cases","number":"1"},
"SOM":{"fillKey":"0~3 cases","number":"1"},
"ZWE":{"fillKey":"0~3 cases","number":"1"},
"CHN":{"fillKey":"0~3 cases","number":"2"},
"COL":{"fillKey":"0~3 cases","number":"1"},
"GRD":{"fillKey":"0~3 cases","number":"1"},
"BOL":{"fillKey":"0~3 cases","number":"2"},
"THA":{"fillKey":"0~3 cases","number":"1"},
"LCA":{"fillKey":"0~3 cases","number":"1"},
"DJI":{"fillKey":"0~3 cases","number":"1"},
"RUS":{"fillKey":"3~5 cases","number":"3"},
"GUY":{"fillKey":"0~3 cases","number":"1"},
"BRB":{"fillKey":"0~3 cases","number":"1"},
"BRA":{"fillKey":"0~3 cases","number":"1"},
"COD":{"fillKey":"0~3 cases","number":"1"}
}