{
"KEN":{"fillKey":"0~3 cases","number":"1"},
"BFA":{"fillKey":"0~3 cases","number":"1"},
"HND":{"fillKey":"0~3 cases","number":"1"},
"USA":{"fillKey":"0~3 cases","number":"2"},
"SOM":{"fillKey":"0~3 cases","number":"1"},
"MYS":{"fillKey":"0~3 cases","number":"1"},
"CHL":{"fillKey":"0~3 cases","number":"1"},
"GTM":{"fillKey":"0~3 cases","number":"1"},
"CHN":{"fillKey":"0~3 cases","number":"1"},
"LKA":{"fillKey":"0~3 cases","number":"1"},
"AUS":{"fillKey":"0~3 cases","number":"1"},
"JAM":{"fillKey":"0~3 cases","number":"1"},
"BOL":{"fillKey":"0~3 cases","number":"1"},
"THA":{"fillKey":"0~3 cases","number":"1"},
"PAK":{"fillKey":"0~3 cases","number":"1"},
"BRA":{"fillKey":"0~3 cases","number":"1"}
}